trabalho 2 td/flip-flop-JK/simulation/qsim/flip_flop_JK.msim.vcd
$comment
	File created using the following command:
		vcd file flip_flop_JK.msim.vcd -direction
$end
$date
	Sat Apr 29 19:53:28 2023
$end
$version
	ModelSim Version 10.1d
$end
$timescale
	1ps
$end
$scope module flip_flop_JK_vlg_vec_tst $end
$var reg 1 ! clk $end
$var wire 1 " q_not [5] $end
$var wire 1 # q_not [4] $end
$var wire 1 $ q_not [3] $end
$var wire 1 % q_not [2] $end
$var wire 1 & q_not [1] $end
$var wire 1 ' q_not [0] $end
$var wire 1 ( q_out [5] $end
$var wire 1 ) q_out [4] $end
$var wire 1 * q_out [3] $end
$var wire 1 + q_out [2] $end
$var wire 1 , q_out [1] $end
$var wire 1 - q_out [0] $end
$var wire 1 . sampler $end
$scope module i1 $end
$var wire 1 / gnd $end
$var wire 1 0 vcc $end
$var wire 1 1 unknown $end
$var tri1 1 2 devclrn $end
$var tri1 1 3 devpor $end
$var tri1 1 4 devoe $end
$var wire 1 5 q_out[0]~output_o $end
$var wire 1 6 q_out[1]~output_o $end
$var wire 1 7 q_out[2]~output_o $end
$var wire 1 8 q_out[3]~output_o $end
$var wire 1 9 q_out[4]~output_o $end
$var wire 1 : q_out[5]~output_o $end
$var wire 1 ; q_not[0]~output_o $end
$var wire 1 < q_not[1]~output_o $end
$var wire 1 = q_not[2]~output_o $end
$var wire 1 > q_not[3]~output_o $end
$var wire 1 ? q_not[4]~output_o $end
$var wire 1 @ q_not[5]~output_o $end
$var wire 1 A clk~input_o $end
$var wire 1 B clk~inputclkctrl_outclk $end
$var wire 1 C q_temp[0]~6_combout $end
$var wire 1 D q_temp[1]~0_combout $end
$var wire 1 E q_temp[2]~1_combout $end
$var wire 1 F q_temp[3]~2_combout $end
$var wire 1 G processo6~0_combout $end
$var wire 1 H q_temp[4]~3_combout $end
$var wire 1 I q_temp[5]~4_combout $end
$var wire 1 J q_temp[5]~5_combout $end
$var wire 1 K q_temp [5] $end
$var wire 1 L q_temp [4] $end
$var wire 1 M q_temp [3] $end
$var wire 1 N q_temp [2] $end
$var wire 1 O q_temp [1] $end
$var wire 1 P q_temp [0] $end
$upscope $end
$upscope $end
$enddefinitions $end
#0
$dumpvars
0!
1'
1&
1%
1$
1#
1"
0-
0,
0+
0*
0)
0(
x.
0/
10
x1
12
13
14
05
06
07
08
09
0:
1;
1<
1=
1>
1?
1@
0A
0B
1C
0D
0E
0F
0G
0H
1I
0J
0P
0O
0N
0M
0L
0K
$end
#12500
1!
1A
1B
0.
1P
1D
0C
15
0;
1-
0'
#25000
0!
0A
0B
1.
#37500
1!
1A
1B
0.
1O
0P
1C
16
05
0<
1;
1,
0-
0&
1'
#50000
0!
0A
0B
1.
#62500
1!
1A
1B
0.
1P
1E
0D
0C
15
0;
1-
0'
#75000
0!
0A
0B
1.
#87500
1!
1A
1B
0.
1N
0O
0P
1C
17
06
05
0=
1<
1;
1+
0,
0-
0%
1&
1'
#100000
0!
0A
0B
1.
#112500
1!
1A
1B
0.
1P
1D
0C
15
0;
1-
0'
#125000
0!
0A
0B
1.
#137500
1!
1A
1B
0.
1O
0P
1C
16
05
0<
1;
1,
0-
0&
1'
#150000
0!
0A
0B
1.
#162500
1!
1A
1B
0.
1P
1F
0E
0D
0C
15
0;
1-
0'
#175000
0!
0A
0B
1.
#187500
1!
1A
1B
0.
1M
0N
0O
0P
1C
18
07
06
05
0>
1=
1<
1;
1*
0+
0,
0-
0$
1%
1&
1'
#200000
0!
0A
0B
1.
#212500
1!
1A
1B
0.
1P
1D
0C
15
0;
1-
0'
#225000
0!
0A
0B
1.
#237500
1!
1A
1B
0.
1O
0P
1C
16
05
0<
1;
1,
0-
0&
1'
#250000
0!
0A
0B
1.
#262500
1!
1A
1B
0.
1P
1E
0D
0C
15
0;
1-
0'
#275000
0!
0A
0B
1.
#287500
1!
1A
1B
0.
1N
0O
0P
1C
17
06
05
0=
1<
1;
1+
0,
0-
0%
1&
1'
#300000
0!
0A
0B
1.
#312500
1!
1A
1B
0.
1P
1D
0C
15
0;
1-
0'
#325000
0!
0A
0B
1.
#337500
1!
1A
1B
0.
1O
0P
0I
1C
16
05
0<
1;
1,
0-
0&
1'
#350000
0!
0A
0B
1.
#362500
1!
1A
1B
0.
1P
1G
0F
0E
0D
0C
15
0;
1-
0'
1H
#375000
0!
0A
0B
1.
#387500
1!
1A
1B
0.
1L
0M
0N
0O
0P
0H
1I
0G
1C
19
08
07
06
05
0?
1>
1=
1<
1;
1)
0*
0+
0,
0-
0#
1$
1%
1&
1'
1H
#400000
0!
0A
0B
1.
#412500
1!
1A
1B
0.
1P
1D
0C
15
0;
1-
0'
#425000
0!
0A
0B
1.
#437500
1!
1A
1B
0.
1O
0P
1C
16
05
0<
1;
1,
0-
0&
1'
#450000
0!
0A
0B
1.
#462500
1!
1A
1B
0.
1P
1E
0D
0C
15
0;
1-
0'
#475000
0!
0A
0B
1.
#487500
1!
1A
1B
0.
1N
0O
0P
1C
17
06
05
0=
1<
1;
1+
0,
0-
0%
1&
1'
#500000
0!
0A
0B
1.
#512500
1!
1A
1B
0.
1P
1D
0C
15
0;
1-
0'
#525000
0!
0A
0B
1.
#537500
1!
1A
1B
0.
1O
0P
1C
16
05
0<
1;
1,
0-
0&
1'
#550000
0!
0A
0B
1.
#562500
1!
1A
1B
0.
1P
1F
0E
0D
0C
15
0;
1-
0'
#575000
0!
0A
0B
1.
#587500
1!
1A
1B
0.
1M
0N
0O
0P
1C
18
07
06
05
0>
1=
1<
1;
1*
0+
0,
0-
0$
1%
1&
1'
#600000
0!
0A
0B
1.
#612500
1!
1A
1B
0.
1P
1D
0C
15
0;
1-
0'
#625000
0!
0A
0B
1.
#637500
1!
1A
1B
0.
1O
0P
1C
16
05
0<
1;
1,
0-
0&
1'
#650000
0!
0A
0B
1.
#662500
1!
1A
1B
0.
1P
1E
0D
0C
15
0;
1-
0'
#675000
0!
0A
0B
1.
#687500
1!
1A
1B
0.
1N
0O
0P
1C
17
06
05
0=
1<
1;
1+
0,
0-
0%
1&
1'
#700000
0!
0A
0B
1.
#712500
1!
1A
1B
0.
1P
1D
0C
15
0;
1-
0'
#725000
0!
0A
0B
1.
#737500
1!
1A
1B
0.
1O
0P
0I
1C
16
05
0<
1;
1,
0-
0&
1'
#750000
0!
0A
0B
1.
#762500
1!
1A
1B
0.
1P
1J
1G
0F
0E
0D
0C
15
0;
1-
0'
0H
#775000
0!
0A
0B
1.
#787500
1!
1A
1B
0.
1K
0L
0M
0N
0O
0P
1H
1I
0G
1C
1:
09
08
07
06
05
0@
1?
1>
1=
1<
1;
1(
0)
0*
0+
0,
0-
0"
1#
1$
1%
1&
1'
0H
#800000
0!
0A
0B
1.
#812500
1!
1A
1B
0.
1P
1D
0C
15
0;
1-
0'
#825000
0!
0A
0B
1.
#837500
1!
1A
1B
0.
1O
0P
1C
16
05
0<
1;
1,
0-
0&
1'
#850000
0!
0A
0B
1.
#862500
1!
1A
1B
0.
1P
1E
0D
0C
15
0;
1-
0'
#875000
0!
0A
0B
1.
#887500
1!
1A
1B
0.
1N
0O
0P
1C
17
06
05
0=
1<
1;
1+
0,
0-
0%
1&
1'
#900000
0!
0A
0B
1.
#912500
1!
1A
1B
0.
1P
1D
0C
15
0;
1-
0'
#925000
0!
0A
0B
1.
#937500
1!
1A
1B
0.
1O
0P
1C
16
05
0<
1;
1,
0-
0&
1'
#950000
0!
0A
0B
1.
#962500
1!
1A
1B
0.
1P
1F
0E
0D
0C
15
0;
1-
0'
#975000
0!
0A
0B
1.
#987500
1!
1A
1B
0.
1M
0N
0O
0P
1C
18
07
06
05
0>
1=
1<
1;
1*
0+
0,
0-
0$
1%
1&
1'
