trabalho 1 td/meio somador std_logic/simulation/qsim/halfadder.msim.vcd
$comment
	File created using the following command:
		vcd file halfadder.msim.vcd -direction
$end
$date
	Wed Mar 22 17:09:59 2023
$end
$version
	ModelSim Version 10.1d
$end
$timescale
	1ps
$end
$scope module halfadder_vlg_vec_tst $end
$var reg 1 ! a $end
$var reg 1 " b $end
$var wire 1 # carry $end
$var wire 1 $ sum $end
$var wire 1 % sampler $end
$scope module i1 $end
$var wire 1 & gnd $end
$var wire 1 ' vcc $end
$var wire 1 ( unknown $end
$var tri1 1 ) devclrn $end
$var tri1 1 * devpor $end
$var tri1 1 + devoe $end
$var wire 1 , sum~output_o $end
$var wire 1 - carry~output_o $end
$var wire 1 . b~input_o $end
$var wire 1 / a~input_o $end
$var wire 1 0 sum~0_combout $end
$var wire 1 1 carry~0_combout $end
$upscope $end
$upscope $end
$enddefinitions $end
#0
$dumpvars
0!
0"
0#
0$
x%
0&
1'
x(
1)
1*
1+
0,
0-
0.
0/
00
01
$end
#25000
1"
1.
0%
10
1,
1$
#50000
1!
0"
1/
0.
1%
#75000
1"
1.
0%
11
00
1-
0,
1#
0$
#100000
0!
0"
0/
0.
1%
01
0-
0#
#125000
1"
1.
0%
10
1,
1$
#150000
1!
0"
1/
0.
1%
#175000
1"
1.
0%
11
00
1-
0,
1#
0$
#200000
0!
0"
0/
0.
1%
01
0-
0#
#225000
1"
1.
0%
10
1,
1$
#250000
1!
0"
1/
0.
1%
#275000
1"
1.
0%
11
00
1-
0,
1#
0$
#300000
0!
0"
0/
0.
1%
01
0-
0#
#325000
1"
1.
0%
10
1,
1$
#350000
1!
0"
1/
0.
1%
#375000
1"
1.
0%
11
00
1-
0,
1#
0$
#400000
0!
0"
0/
0.
1%
01
0-
0#
#425000
1"
1.
0%
10
1,
1$
#450000
1!
0"
1/
0.
1%
#475000
1"
1.
0%
11
00
1-
0,
1#
0$
#500000
0!
0"
0/
0.
1%
01
0-
0#
#525000
1"
1.
0%
10
1,
1$
#550000
1!
0"
1/
0.
1%
#575000
1"
1.
0%
11
00
1-
0,
1#
0$
#600000
0!
0"
0/
0.
1%
01
0-
0#
#625000
1"
1.
0%
10
1,
1$
#650000
1!
0"
1/
0.
1%
#675000
1"
1.
0%
11
00
1-
0,
1#
0$
#700000
0!
0"
0/
0.
1%
01
0-
0#
#725000
1"
1.
0%
10
1,
1$
#750000
1!
0"
1/
0.
1%
#775000
1"
1.
0%
11
00
1-
0,
1#
0$
#800000
0!
0"
0/
0.
1%
01
0-
0#
#825000
1"
1.
0%
10
1,
1$
#850000
1!
0"
1/
0.
1%
#875000
1"
1.
0%
11
00
1-
0,
1#
0$
#900000
0!
0"
0/
0.
1%
01
0-
0#
#925000
1"
1.
0%
10
1,
1$
#950000
1!
0"
1/
0.
1%
#975000
1"
1.
0%
11
00
1-
0,
1#
0$
