aula pratica 10-03-2023 ... Somador/somadorParalelo/simulation/qsim/somadorparalelo2.msim.vcd
$comment
	File created using the following command:
		vcd file somadorparalelo2.msim.vcd -direction
$end
$date
	Wed Mar 22 18:00:27 2023
$end
$version
	ModelSim Version 10.1d
$end
$timescale
	1ps
$end
$scope module somadorparalelo2_vlg_vec_tst $end
$var reg 4 ! a [3:0] $end
$var reg 4 " b [3:0] $end
$var wire 1 # carry $end
$var wire 1 $ sum [3] $end
$var wire 1 % sum [2] $end
$var wire 1 & sum [1] $end
$var wire 1 ' sum [0] $end
$var wire 1 ( sampler $end
$scope module i1 $end
$var wire 1 ) gnd $end
$var wire 1 * vcc $end
$var wire 1 + unknown $end
$var tri1 1 , devclrn $end
$var tri1 1 - devpor $end
$var tri1 1 . devoe $end
$var wire 1 / sum[0]~output_o $end
$var wire 1 0 sum[1]~output_o $end
$var wire 1 1 sum[2]~output_o $end
$var wire 1 2 sum[3]~output_o $end
$var wire 1 3 carry~output_o $end
$var wire 1 4 b[0]~input_o $end
$var wire 1 5 a[0]~input_o $end
$var wire 1 6 meio|sum~combout $end
$var wire 1 7 a[1]~input_o $end
$var wire 1 8 b[1]~input_o $end
$var wire 1 9 complet1|meio1|sum~combout $end
$var wire 1 : complet1|carry1~combout $end
$var wire 1 ; a[2]~input_o $end
$var wire 1 < b[2]~input_o $end
$var wire 1 = complet2|meio1|sum~combout $end
$var wire 1 > b[3]~input_o $end
$var wire 1 ? complet2|carry1~combout $end
$var wire 1 @ a[3]~input_o $end
$var wire 1 A complet3|meio1|sum~combout $end
$var wire 1 B complet3|carry1~combout $end
$upscope $end
$upscope $end
$enddefinitions $end
#0
$dumpvars
b0 !
b0 "
0#
1'
1&
1%
1$
x(
0)
1*
x+
1,
1-
1.
1/
10
11
12
03
04
05
06
07
08
09
0:
0;
0<
0=
0>
0?
0@
0A
0B
$end
#6250
b1 "
14
0(
16
0/
0'
#12500
b1 !
b11 "
b10 "
04
18
15
1(
#18750
b11 "
14
0(
19
06
00
1/
0&
1'
#25000
b11 !
b111 "
b10 !
b101 "
b100 "
04
08
1<
05
17
1(
1:
1=
0=
01
0%
11
1%
#31250
b101 "
14
0(
16
0/
0'
#37500
b11 !
b111 "
b110 "
04
18
15
1(
#43750
b111 "
14
0(
0:
09
06
1=
10
1/
1&
1'
01
0%
#50000
b111 !
b1111 "
b101 !
b1011 "
b100 !
b1001 "
b1000 "
04
08
0<
1>
05
07
1;
1(
1?
1A
0A
02
0$
12
1$
#56250
b1001 "
14
0(
16
0/
0'
#62500
b101 !
b1011 "
b1010 "
04
18
15
1(
#68750
b1011 "
14
0(
19
06
00
1/
0&
1'
#75000
b111 !
b1111 "
b110 !
b1101 "
b1100 "
04
08
1<
05
17
1(
1:
0?
0=
1?
1=
1A
11
1%
0A
01
02
0%
0$
12
1$
#81250
b1101 "
14
0(
16
0/
0'
#87500
b111 !
b1111 "
b1110 "
04
18
15
1(
#93750
b1111 "
14
0(
0:
09
06
0?
0=
10
1/
1&
1'
1A
11
1%
02
0$
#100000
b1111 !
b1011 !
b111 "
b1001 !
b11 "
b1000 !
b1 "
b0 "
04
08
0<
0>
05
07
0;
1@
1(
1B
13
1#
#106250
b1 "
14
0(
16
0/
0'
#112500
b1001 !
b11 "
b10 "
04
18
15
1(
#118750
b11 "
14
0(
19
06
00
1/
0&
1'
#125000
b1011 !
b111 "
b1010 !
b101 "
b100 "
04
08
1<
05
17
1(
1:
1=
0=
01
0%
11
1%
#131250
b101 "
14
0(
16
0/
0'
#137500
b1011 !
b111 "
b110 "
04
18
15
1(
#143750
b111 "
14
0(
0:
09
06
1=
10
1/
1&
1'
01
0%
#150000
b1111 !
b1111 "
b1101 !
b1011 "
b1100 !
b1001 "
b1000 "
04
08
0<
1>
05
07
1;
1(
1?
0A
0B
1A
12
03
1$
0#
1B
02
13
0$
1#
#156250
b1001 "
14
0(
16
0/
0'
#162500
b1101 !
b1011 "
b1010 "
04
18
15
1(
#168750
b1011 "
14
0(
19
06
00
1/
0&
1'
#175000
b1111 !
b1111 "
b1110 !
b1101 "
b1100 "
04
08
1<
05
17
1(
1:
0?
0=
1?
1=
0A
11
1%
0B
1A
01
12
03
0%
1$
0#
1B
02
13
0$
1#
#181250
b1101 "
14
0(
16
0/
0'
#187500
b1111 !
b1111 "
b1110 "
04
18
15
1(
#193750
b1111 "
14
0(
0:
09
06
0?
0=
10
1/
1&
1'
0A
11
1%
0B
12
03
1$
0#
#200000
b111 !
b11 !
b111 "
b1 !
b11 "
b0 !
b1 "
b0 "
04
08
0<
0>
05
07
0;
0@
1(
#206250
b1 "
14
0(
16
0/
0'
#212500
b1 !
b11 "
b10 "
04
18
15
1(
#218750
b11 "
14
0(
19
06
00
1/
0&
1'
#225000
b11 !
b111 "
b10 !
b101 "
b100 "
04
08
1<
05
17
1(
1:
1=
0=
01
0%
11
1%
#231250
b101 "
14
0(
16
0/
0'
#237500
b11 !
b111 "
b110 "
04
18
15
1(
#243750
b111 "
14
0(
0:
09
06
1=
10
1/
1&
1'
01
0%
#250000
b111 !
b1111 "
b101 !
b1011 "
b100 !
b1001 "
b1000 "
04
08
0<
1>
05
07
1;
1(
1?
1A
0A
02
0$
12
1$
#256250
b1001 "
14
0(
16
0/
0'
#262500
b101 !
b1011 "
b1010 "
04
18
15
1(
#268750
b1011 "
14
0(
19
06
00
1/
0&
1'
#275000
b111 !
b1111 "
b110 !
b1101 "
b1100 "
04
08
1<
05
17
1(
1:
0?
0=
1?
1=
1A
11
1%
0A
01
02
0%
0$
12
1$
#281250
b1101 "
14
0(
16
0/
0'
#287500
b111 !
b1111 "
b1110 "
04
18
15
1(
#293750
b1111 "
14
0(
0:
09
06
0?
0=
10
1/
1&
1'
1A
11
1%
02
0$
#300000
b1111 !
b1011 !
b111 "
b1001 !
b11 "
b1000 !
b1 "
b0 "
04
08
0<
0>
05
07
0;
1@
1(
1B
13
1#
#306250
b1 "
14
0(
16
0/
0'
#312500
b1001 !
b11 "
b10 "
04
18
15
1(
#318750
b11 "
14
0(
19
06
00
1/
0&
1'
#325000
b1011 !
b111 "
b1010 !
b101 "
b100 "
04
08
1<
05
17
1(
1:
1=
0=
01
0%
11
1%
#331250
b101 "
14
0(
16
0/
0'
#337500
b1011 !
b111 "
b110 "
04
18
15
1(
#343750
b111 "
14
0(
0:
09
06
1=
10
1/
1&
1'
01
0%
#350000
b1111 !
b1111 "
b1101 !
b1011 "
b1100 !
b1001 "
b1000 "
04
08
0<
1>
05
07
1;
1(
1?
0A
0B
1A
12
03
1$
0#
1B
02
13
0$
1#
#356250
b1001 "
14
0(
16
0/
0'
#362500
b1101 !
b1011 "
b1010 "
04
18
15
1(
#368750
b1011 "
14
0(
19
06
00
1/
0&
1'
#375000
b1111 !
b1111 "
b1110 !
b1101 "
b1100 "
04
08
1<
05
17
1(
1:
0?
0=
1?
1=
0A
11
1%
0B
1A
01
12
03
0%
1$
0#
1B
02
13
0$
1#
#381250
b1101 "
14
0(
16
0/
0'
#387500
b1111 !
b1111 "
b1110 "
04
18
15
1(
#393750
b1111 "
14
0(
0:
09
06
0?
0=
10
1/
1&
1'
0A
11
1%
0B
12
03
1$
0#
#400000
b111 !
b11 !
b111 "
b1 !
b11 "
b0 !
b1 "
b0 "
04
08
0<
0>
05
07
0;
0@
1(
#406250
b1 "
14
0(
16
0/
0'
#412500
b1 !
b11 "
b10 "
04
18
15
1(
#418750
b11 "
14
0(
19
06
00
1/
0&
1'
#425000
b11 !
b111 "
b10 !
b101 "
b100 "
04
08
1<
05
17
1(
1:
1=
0=
01
0%
11
1%
#431250
b101 "
14
0(
16
0/
0'
#437500
b11 !
b111 "
b110 "
04
18
15
1(
#443750
b111 "
14
0(
0:
09
06
1=
10
1/
1&
1'
01
0%
#450000
b111 !
b1111 "
b101 !
b1011 "
b100 !
b1001 "
b1000 "
04
08
0<
1>
05
07
1;
1(
1?
1A
0A
02
0$
12
1$
#456250
b1001 "
14
0(
16
0/
0'
#462500
b101 !
b1011 "
b1010 "
04
18
15
1(
#468750
b1011 "
14
0(
19
06
00
1/
0&
1'
#475000
b111 !
b1111 "
b110 !
b1101 "
b1100 "
04
08
1<
05
17
1(
1:
0?
0=
1?
1=
1A
11
1%
0A
01
02
0%
0$
12
1$
#481250
b1101 "
14
0(
16
0/
0'
#487500
b111 !
b1111 "
b1110 "
04
18
15
1(
#493750
b1111 "
14
0(
0:
09
06
0?
0=
10
1/
1&
1'
1A
11
1%
02
0$
#500000
b1111 !
b1011 !
b111 "
b1001 !
b11 "
b1000 !
b1 "
b0 "
04
08
0<
0>
05
07
0;
1@
1(
1B
13
1#
#506250
b1 "
14
0(
16
0/
0'
#512500
b1001 !
b11 "
b10 "
04
18
15
1(
#518750
b11 "
14
0(
19
06
00
1/
0&
1'
#525000
b1011 !
b111 "
b1010 !
b101 "
b100 "
04
08
1<
05
17
1(
1:
1=
0=
01
0%
11
1%
#531250
b101 "
14
0(
16
0/
0'
#537500
b1011 !
b111 "
b110 "
04
18
15
1(
#543750
b111 "
14
0(
0:
09
06
1=
10
1/
1&
1'
01
0%
#550000
b1111 !
b1111 "
b1101 !
b1011 "
b1100 !
b1001 "
b1000 "
04
08
0<
1>
05
07
1;
1(
1?
0A
0B
1A
12
03
1$
0#
1B
02
13
0$
1#
#556250
b1001 "
14
0(
16
0/
0'
#562500
b1101 !
b1011 "
b1010 "
04
18
15
1(
#568750
b1011 "
14
0(
19
06
00
1/
0&
1'
#575000
b1111 !
b1111 "
b1110 !
b1101 "
b1100 "
04
08
1<
05
17
1(
1:
0?
0=
1?
1=
0A
11
1%
0B
1A
01
12
03
0%
1$
0#
1B
02
13
0$
1#
#581250
b1101 "
14
0(
16
0/
0'
#587500
b1111 !
b1111 "
b1110 "
04
18
15
1(
#593750
b1111 "
14
0(
0:
09
06
0?
0=
10
1/
1&
1'
0A
11
1%
0B
12
03
1$
0#
#600000
b111 !
b11 !
b111 "
b1 !
b11 "
b0 !
b1 "
b0 "
04
08
0<
0>
05
07
0;
0@
1(
#606250
b1 "
14
0(
16
0/
0'
#612500
b1 !
b11 "
b10 "
04
18
15
1(
#618750
b11 "
14
0(
19
06
00
1/
0&
1'
#625000
b11 !
b111 "
b10 !
b101 "
b100 "
04
08
1<
05
17
1(
1:
1=
0=
01
0%
11
1%
#631250
b101 "
14
0(
16
0/
0'
#637500
b11 !
b111 "
b110 "
04
18
15
1(
#643750
b111 "
14
0(
0:
09
06
1=
10
1/
1&
1'
01
0%
#650000
b111 !
b1111 "
b101 !
b1011 "
b100 !
b1001 "
b1000 "
04
08
0<
1>
05
07
1;
1(
1?
1A
0A
02
0$
12
1$
#656250
b1001 "
14
0(
16
0/
0'
#662500
b101 !
b1011 "
b1010 "
04
18
15
1(
#668750
b1011 "
14
0(
19
06
00
1/
0&
1'
#675000
b111 !
b1111 "
b110 !
b1101 "
b1100 "
04
08
1<
05
17
1(
1:
0?
0=
1?
1=
1A
11
1%
0A
01
02
0%
0$
12
1$
#681250
b1101 "
14
0(
16
0/
0'
#687500
b111 !
b1111 "
b1110 "
04
18
15
1(
#693750
b1111 "
14
0(
0:
09
06
0?
0=
10
1/
1&
1'
1A
11
1%
02
0$
#700000
b1111 !
b1011 !
b111 "
b1001 !
b11 "
b1000 !
b1 "
b0 "
04
08
0<
0>
05
07
0;
1@
1(
1B
13
1#
#706250
b1 "
14
0(
16
0/
0'
#712500
b1001 !
b11 "
b10 "
04
18
15
1(
#718750
b11 "
14
0(
19
06
00
1/
0&
1'
#725000
b1011 !
b111 "
b1010 !
b101 "
b100 "
04
08
1<
05
17
1(
1:
1=
0=
01
0%
11
1%
#731250
b101 "
14
0(
16
0/
0'
#737500
b1011 !
b111 "
b110 "
04
18
15
1(
#743750
b111 "
14
0(
0:
09
06
1=
10
1/
1&
1'
01
0%
#750000
b1111 !
b1111 "
b1101 !
b1011 "
b1100 !
b1001 "
b1000 "
04
08
0<
1>
05
07
1;
1(
1?
0A
0B
1A
12
03
1$
0#
1B
02
13
0$
1#
#756250
b1001 "
14
0(
16
0/
0'
#762500
b1101 !
b1011 "
b1010 "
04
18
15
1(
#768750
b1011 "
14
0(
19
06
00
1/
0&
1'
#775000
b1111 !
b1111 "
b1110 !
b1101 "
b1100 "
04
08
1<
05
17
1(
1:
0?
0=
1?
1=
0A
11
1%
0B
1A
01
12
03
0%
1$
0#
1B
02
13
0$
1#
#781250
b1101 "
14
0(
16
0/
0'
#787500
b1111 !
b1111 "
b1110 "
04
18
15
1(
#793750
b1111 "
14
0(
0:
09
06
0?
0=
10
1/
1&
1'
0A
11
1%
0B
12
03
1$
0#
#800000
b111 !
b11 !
b111 "
b1 !
b11 "
b0 !
b1 "
b0 "
04
08
0<
0>
05
07
0;
0@
1(
#806250
b1 "
14
0(
16
0/
0'
#812500
b1 !
b11 "
b10 "
04
18
15
1(
#818750
b11 "
14
0(
19
06
00
1/
0&
1'
#825000
b11 !
b111 "
b10 !
b101 "
b100 "
04
08
1<
05
17
1(
1:
1=
0=
01
0%
11
1%
#831250
b101 "
14
0(
16
0/
0'
#837500
b11 !
b111 "
b110 "
04
18
15
1(
#843750
b111 "
14
0(
0:
09
06
1=
10
1/
1&
1'
01
0%
#850000
b111 !
b1111 "
b101 !
b1011 "
b100 !
b1001 "
b1000 "
04
08
0<
1>
05
07
1;
1(
1?
1A
0A
02
0$
12
1$
#856250
b1001 "
14
0(
16
0/
0'
#862500
b101 !
b1011 "
b1010 "
04
18
15
1(
#868750
b1011 "
14
0(
19
06
00
1/
0&
1'
#875000
b111 !
b1111 "
b110 !
b1101 "
b1100 "
04
08
1<
05
17
1(
1:
0?
0=
1?
1=
1A
11
1%
0A
01
02
0%
0$
12
1$
#881250
b1101 "
14
0(
16
0/
0'
#887500
b111 !
b1111 "
b1110 "
04
18
15
1(
#893750
b1111 "
14
0(
0:
09
06
0?
0=
10
1/
1&
1'
1A
11
1%
02
0$
#900000
b1111 !
b1011 !
b111 "
b1001 !
b11 "
b1000 !
b1 "
b0 "
04
08
0<
0>
05
07
0;
1@
1(
1B
13
1#
#906250
b1 "
14
0(
16
0/
0'
#912500
b1001 !
b11 "
b10 "
04
18
15
1(
#918750
b11 "
14
0(
19
06
00
1/
0&
1'
#925000
b1011 !
b111 "
b1010 !
b101 "
b100 "
04
08
1<
05
17
1(
1:
1=
0=
01
0%
11
1%
#931250
b101 "
14
0(
16
0/
0'
#937500
b1011 !
b111 "
b110 "
04
18
15
1(
#943750
b111 "
14
0(
0:
09
06
1=
10
1/
1&
1'
01
0%
#950000
b1111 !
b1111 "
b1101 !
b1011 "
b1100 !
b1001 "
b1000 "
04
08
0<
1>
05
07
1;
1(
1?
0A
0B
1A
12
03
1$
0#
1B
02
13
0$
1#
#956250
b1001 "
14
0(
16
0/
0'
#962500
b1101 !
b1011 "
b1010 "
04
18
15
1(
#968750
b1011 "
14
0(
19
06
00
1/
0&
1'
#975000
b1111 !
b1111 "
b1110 !
b1101 "
b1100 "
04
08
1<
05
17
1(
1:
0?
0=
1?
1=
0A
11
1%
0B
1A
01
12
03
0%
1$
0#
1B
02
13
0$
1#
#981250
b1101 "
14
0(
16
0/
0'
#987500
b1111 !
b1111 "
b1110 "
04
18
15
1(
#993750
b1111 "
14
0(
0:
09
06
0?
0=
10
1/
1&
1'
0A
11
1%
0B
12
03
1$
0#
