exercicios e exemplos aula 5 e 6  TD/exercicio3/simulation/qsim/exercicio3.msim.vcd
$comment
	File created using the following command:
		vcd file exercicio3.msim.vcd -direction
$end
$date
	Thu Mar 09 18:12:49 2023
$end
$version
	ModelSim Version 10.1d
$end
$timescale
	1ps
$end
$scope module exercicio3_vlg_vec_tst $end
$var reg 4 ! bcd [3:0] $end
$var wire 1 " s $end
$var wire 1 # sampler $end
$scope module i1 $end
$var wire 1 $ gnd $end
$var wire 1 % vcc $end
$var wire 1 & unknown $end
$var tri1 1 ' devclrn $end
$var tri1 1 ( devpor $end
$var tri1 1 ) devoe $end
$var wire 1 * bcd[3]~input_o $end
$var wire 1 + s~output_o $end
$var wire 1 , bcd[0]~input_o $end
$var wire 1 - bcd[2]~input_o $end
$var wire 1 . bcd[1]~input_o $end
$var wire 1 / s~0_combout $end
$upscope $end
$upscope $end
$enddefinitions $end
#0
$dumpvars
b0 !
0"
x#
0$
1%
x&
1'
1(
1)
0*
0+
0,
0-
0.
0/
$end
#12500
b1000 !
1*
0#
#25000
b1100 !
b100 !
1-
0*
1#
#37500
b1100 !
1*
0#
#50000
b1110 !
b1010 !
b10 !
1.
0-
0*
1#
#62500
b1010 !
1*
0#
#75000
b1110 !
b110 !
1-
0*
1#
#87500
b1110 !
1*
0#
#100000
b1111 !
b1101 !
b1001 !
b1 !
1,
0.
0-
0*
1#
#112500
b1001 !
1*
0#
#125000
b1101 !
b101 !
1-
0*
1#
1/
1+
1"
#137500
b1101 !
1*
0#
#150000
b1111 !
b1011 !
b11 !
1.
0-
0*
1#
#162500
b1011 !
1*
0#
#175000
b1111 !
b111 !
1-
0*
1#
#187500
b1111 !
1*
0#
#200000
b1110 !
b1100 !
b1000 !
b0 !
0,
0.
0-
0*
1#
0/
0+
0"
#212500
b1000 !
1*
0#
#225000
b1100 !
b100 !
1-
0*
1#
#237500
b1100 !
1*
0#
#250000
b1110 !
b1010 !
b10 !
1.
0-
0*
1#
#262500
b1010 !
1*
0#
#275000
b1110 !
b110 !
1-
0*
1#
#287500
b1110 !
1*
0#
#300000
b1111 !
b1101 !
b1001 !
b1 !
1,
0.
0-
0*
1#
#312500
b1001 !
1*
0#
#325000
b1101 !
b101 !
1-
0*
1#
1/
1+
1"
#337500
b1101 !
1*
0#
#350000
b1111 !
b1011 !
b11 !
1.
0-
0*
1#
#362500
b1011 !
1*
0#
#375000
b1111 !
b111 !
1-
0*
1#
#387500
b1111 !
1*
0#
#400000
b1110 !
b1100 !
b1000 !
b0 !
0,
0.
0-
0*
1#
0/
0+
0"
#412500
b1000 !
1*
0#
#425000
b1100 !
b100 !
1-
0*
1#
#437500
b1100 !
1*
0#
#450000
b1110 !
b1010 !
b10 !
1.
0-
0*
1#
#462500
b1010 !
1*
0#
#475000
b1110 !
b110 !
1-
0*
1#
#487500
b1110 !
1*
0#
#500000
b1111 !
b1101 !
b1001 !
b1 !
1,
0.
0-
0*
1#
#512500
b1001 !
1*
0#
#525000
b1101 !
b101 !
1-
0*
1#
1/
1+
1"
#537500
b1101 !
1*
0#
#550000
b1111 !
b1011 !
b11 !
1.
0-
0*
1#
#562500
b1011 !
1*
0#
#575000
b1111 !
b111 !
1-
0*
1#
#587500
b1111 !
1*
0#
#600000
b1110 !
b1100 !
b1000 !
b0 !
0,
0.
0-
0*
1#
0/
0+
0"
#612500
b1000 !
1*
0#
#625000
b1100 !
b100 !
1-
0*
1#
#637500
b1100 !
1*
0#
#650000
b1110 !
b1010 !
b10 !
1.
0-
0*
1#
#662500
b1010 !
1*
0#
#675000
b1110 !
b110 !
1-
0*
1#
#687500
b1110 !
1*
0#
#700000
b1111 !
b1101 !
b1001 !
b1 !
1,
0.
0-
0*
1#
#712500
b1001 !
1*
0#
#725000
b1101 !
b101 !
1-
0*
1#
1/
1+
1"
#737500
b1101 !
1*
0#
#750000
b1111 !
b1011 !
b11 !
1.
0-
0*
1#
#762500
b1011 !
1*
0#
#775000
b1111 !
b111 !
1-
0*
1#
#787500
b1111 !
1*
0#
#800000
b1110 !
b1100 !
b1000 !
b0 !
0,
0.
0-
0*
1#
0/
0+
0"
#812500
b1000 !
1*
0#
#825000
b1100 !
b100 !
1-
0*
1#
#837500
b1100 !
1*
0#
#850000
b1110 !
b1010 !
b10 !
1.
0-
0*
1#
#862500
b1010 !
1*
0#
#875000
b1110 !
b110 !
1-
0*
1#
#887500
b1110 !
1*
0#
#900000
b1111 !
b1101 !
b1001 !
b1 !
1,
0.
0-
0*
1#
#912500
b1001 !
1*
0#
#925000
b1101 !
b101 !
1-
0*
1#
1/
1+
1"
#937500
b1101 !
1*
0#
#950000
b1111 !
b1011 !
b11 !
1.
0-
0*
1#
#962500
b1011 !
1*
0#
#975000
b1111 !
b111 !
1-
0*
1#
#987500
b1111 !
1*
0#
