trabalho 2 td/um jk/simulation/qsim/reg_1bit.msim.vcd
$comment
	File created using the following command:
		vcd file reg_1bit.msim.vcd -direction
$end
$date
	Tue May 02 18:24:09 2023
$end
$version
	ModelSim Version 10.1d
$end
$timescale
	1ps
$end
$scope module reg_1bit_vlg_vec_tst $end
$var reg 1 ! clear $end
$var reg 1 " clock $end
$var reg 1 # d $end
$var reg 1 $ hold $end
$var reg 1 % load $end
$var wire 1 & q_not $end
$var wire 1 ' q_out $end
$var wire 1 ( sampler $end
$scope module i1 $end
$var wire 1 ) gnd $end
$var wire 1 * vcc $end
$var wire 1 + unknown $end
$var tri1 1 , devclrn $end
$var tri1 1 - devpor $end
$var tri1 1 . devoe $end
$var wire 1 / d~input_o $end
$var wire 1 0 q_out~output_o $end
$var wire 1 1 q_not~output_o $end
$var wire 1 2 clock~input_o $end
$var wire 1 3 load~input_o $end
$var wire 1 4 hold~input_o $end
$var wire 1 5 q_temp~0_combout $end
$var wire 1 6 clear~input_o $end
$var wire 1 7 q_temp~q $end
$upscope $end
$upscope $end
$enddefinitions $end
#0
$dumpvars
0!
0"
0#
0$
0%
1&
0'
x(
0)
1*
x+
1,
1-
1.
0/
00
11
02
03
04
05
06
07
$end
#25000
1"
12
0(
#40000
1#
1/
1(
#50000
1%
0"
13
02
0(
15
#75000
1"
12
1(
17
10
01
1'
0&
#80000
0#
0/
0(
05
#100000
0%
0"
03
02
1(
15
#120000
1#
1/
0(
#125000
1"
12
1(
#150000
1%
0"
13
02
0(
#160000
0#
0/
1(
05
#175000
1"
12
0(
07
00
11
0'
1&
#200000
0%
1#
0"
03
1/
02
1(
#225000
1"
12
0(
#240000
0#
0/
1(
#250000
1%
0"
13
02
0(
#275000
1"
12
1(
#280000
1#
1/
0(
15
#300000
0%
0"
03
02
1(
05
#320000
0#
0/
0(
#325000
1"
12
1(
#350000
1%
0"
13
02
0(
#360000
1#
1/
1(
15
#375000
1"
12
0(
17
10
01
1'
0&
#400000
0%
0#
0"
03
0/
02
1(
#425000
1"
12
0(
#440000
1#
1/
1(
#450000
1%
0"
13
02
0(
#475000
1"
12
1(
#480000
0#
0/
0(
05
#500000
0%
0"
03
02
1(
15
#520000
1#
1/
0(
#525000
1"
12
1(
#550000
1%
0"
13
02
0(
#560000
0#
0/
1(
05
#575000
1"
12
0(
07
00
11
0'
1&
#600000
0%
1#
0"
03
1/
02
1(
#625000
1"
12
0(
#640000
0#
0/
1(
#650000
1%
0"
13
02
0(
#675000
1"
12
1(
#680000
1#
1/
0(
15
#700000
0%
0"
03
02
1(
05
#720000
0#
0/
0(
#725000
1"
12
1(
#750000
1%
0"
13
02
0(
#760000
1#
1/
1(
15
#775000
1"
12
0(
17
10
01
1'
0&
#800000
0%
0#
0"
03
0/
02
1(
#825000
1"
12
0(
#840000
1#
1/
1(
#850000
1%
0"
13
02
0(
#875000
1"
12
1(
#880000
0#
0/
0(
05
#900000
0%
0"
03
02
1(
15
#920000
1#
1/
0(
#925000
1"
12
1(
#950000
1%
0"
13
02
0(
#960000
0#
0/
1(
05
#975000
1"
12
0(
07
00
11
0'
1&
