exercicios e exemplos aula 5 e 6  TD/exemplo11/simulation/qsim/exemplo11.msim.vcd
$comment
	File created using the following command:
		vcd file exemplo11.msim.vcd -direction
$end
$date
	Fri Mar 10 13:26:17 2023
$end
$version
	ModelSim Version 10.1d
$end
$timescale
	1ps
$end
$scope module exemplo11_vlg_vec_tst $end
$var reg 1 ! a $end
$var reg 1 " b $end
$var reg 1 # c $end
$var reg 1 $ d $end
$var reg 2 % sel [1:0] $end
$var wire 1 & s $end
$var wire 1 ' sampler $end
$scope module i1 $end
$var wire 1 ( gnd $end
$var wire 1 ) vcc $end
$var wire 1 * unknown $end
$var tri1 1 + devclrn $end
$var tri1 1 , devpor $end
$var tri1 1 - devoe $end
$var wire 1 . s~output_o $end
$var wire 1 / sel[1]~input_o $end
$var wire 1 0 a~input_o $end
$var wire 1 1 b~input_o $end
$var wire 1 2 sel[0]~input_o $end
$var wire 1 3 Mux0~0_combout $end
$var wire 1 4 c~input_o $end
$var wire 1 5 d~input_o $end
$var wire 1 6 Mux0~1_combout $end
$upscope $end
$upscope $end
$enddefinitions $end
#0
$dumpvars
0!
0"
0#
0$
b0 %
0&
x'
0(
1)
x*
1+
1,
1-
0.
0/
00
01
02
03
04
05
06
$end
#10000
b10 %
1/
0'
#20000
b11 %
b1 %
12
0/
1'
#30000
b11 %
1/
0'
13
#40000
1!
b10 %
b0 %
10
02
0/
1'
16
1.
1&
#50000
b10 %
1/
0'
03
06
0.
0&
#60000
b11 %
b1 %
12
0/
1'
#70000
b11 %
1/
0'
13
#80000
0!
b10 %
b0 %
00
02
0/
1'
03
16
1.
1&
06
0.
0&
#90000
b10 %
1/
0'
#100000
b11 %
b1 %
12
0/
1'
#110000
b11 %
1/
0'
13
#120000
1!
b10 %
b0 %
10
02
0/
1'
16
1.
1&
#130000
b10 %
1/
0'
03
06
0.
0&
#140000
b11 %
b1 %
12
0/
1'
#150000
b11 %
1/
0'
13
#160000
0!
b10 %
b0 %
00
02
0/
1'
03
16
1.
1&
06
0.
0&
#170000
b10 %
1/
0'
#180000
b11 %
b1 %
12
0/
1'
#190000
b11 %
1/
0'
13
#200000
1!
b10 %
b0 %
10
02
0/
1'
16
1.
1&
#210000
b10 %
1/
0'
03
06
0.
0&
#220000
b11 %
b1 %
12
0/
1'
#230000
b11 %
1/
0'
13
#240000
0!
b10 %
b0 %
00
02
0/
1'
03
16
1.
1&
06
0.
0&
#250000
b10 %
1/
0'
#260000
b11 %
b1 %
12
0/
1'
#270000
b11 %
1/
0'
13
#280000
1!
b10 %
b0 %
10
02
0/
1'
16
1.
1&
#290000
b10 %
1/
0'
03
06
0.
0&
#300000
b11 %
b1 %
12
0/
1'
#310000
b11 %
1/
0'
13
#320000
0!
b10 %
b0 %
00
02
0/
1'
03
16
1.
1&
06
0.
0&
#330000
b10 %
1/
0'
#340000
b11 %
b1 %
12
0/
1'
#350000
b11 %
1/
0'
13
#360000
1!
b10 %
b0 %
10
02
0/
1'
16
1.
1&
#370000
b10 %
1/
0'
03
06
0.
0&
#380000
b11 %
b1 %
12
0/
1'
#390000
b11 %
1/
0'
13
#400000
0!
b10 %
b0 %
00
02
0/
1'
03
16
1.
1&
06
0.
0&
#410000
b10 %
1/
0'
#420000
b11 %
b1 %
12
0/
1'
#430000
b11 %
1/
0'
13
#440000
1!
b10 %
b0 %
10
02
0/
1'
16
1.
1&
#450000
b10 %
1/
0'
03
06
0.
0&
#460000
b11 %
b1 %
12
0/
1'
#470000
b11 %
1/
0'
13
#480000
0!
b10 %
b0 %
00
02
0/
1'
03
16
1.
1&
06
0.
0&
#490000
b10 %
1/
0'
#500000
b11 %
b1 %
12
0/
1'
#510000
b11 %
1/
0'
13
#520000
1!
b10 %
b0 %
10
02
0/
1'
16
1.
1&
#530000
b10 %
1/
0'
03
06
0.
0&
#540000
b11 %
b1 %
12
0/
1'
#550000
b11 %
1/
0'
13
#560000
0!
b10 %
b0 %
00
02
0/
1'
03
16
1.
1&
06
0.
0&
#570000
b10 %
1/
0'
#580000
b11 %
b1 %
12
0/
1'
#590000
b11 %
1/
0'
13
#600000
1!
b10 %
b0 %
10
02
0/
1'
16
1.
1&
#610000
b10 %
1/
0'
03
06
0.
0&
#620000
b11 %
b1 %
12
0/
1'
#630000
b11 %
1/
0'
13
#640000
0!
b10 %
b0 %
00
02
0/
1'
03
16
1.
1&
06
0.
0&
#650000
b10 %
1/
0'
#660000
b11 %
b1 %
12
0/
1'
#670000
b11 %
1/
0'
13
#680000
1!
b10 %
b0 %
10
02
0/
1'
16
1.
1&
#690000
b10 %
1/
0'
03
06
0.
0&
#700000
b11 %
b1 %
12
0/
1'
#710000
b11 %
1/
0'
13
#720000
0!
b10 %
b0 %
00
02
0/
1'
03
16
1.
1&
06
0.
0&
#730000
b10 %
1/
0'
#740000
b11 %
b1 %
12
0/
1'
#750000
b11 %
1/
0'
13
#760000
1!
b10 %
b0 %
10
02
0/
1'
16
1.
1&
#770000
b10 %
1/
0'
03
06
0.
0&
#780000
b11 %
b1 %
12
0/
1'
#790000
b11 %
1/
0'
13
#800000
0!
b10 %
b0 %
00
02
0/
1'
03
16
1.
1&
06
0.
0&
#810000
b10 %
1/
0'
#820000
b11 %
b1 %
12
0/
1'
#830000
b11 %
1/
0'
13
#840000
1!
b10 %
b0 %
10
02
0/
1'
16
1.
1&
#850000
b10 %
1/
0'
03
06
0.
0&
#860000
b11 %
b1 %
12
0/
1'
#870000
b11 %
1/
0'
13
#880000
0!
b10 %
b0 %
00
02
0/
1'
03
16
1.
1&
06
0.
0&
#890000
b10 %
1/
0'
#900000
b11 %
b1 %
12
0/
1'
#910000
b11 %
1/
0'
13
#920000
1!
b10 %
b0 %
10
02
0/
1'
16
1.
1&
#930000
b10 %
1/
0'
03
06
0.
0&
#940000
b11 %
b1 %
12
0/
1'
#950000
b11 %
1/
0'
13
#960000
0!
b10 %
b0 %
00
02
0/
1'
03
16
1.
1&
06
0.
0&
#970000
b10 %
1/
0'
#980000
b11 %
b1 %
12
0/
1'
#990000
b11 %
1/
0'
13
