exercicios e exemplos aula 10/flip-flop D/simulation/qsim/flip_flop_D.msim.vcd
$comment
	File created using the following command:
		vcd file flip_flop_D.msim.vcd -direction
$end
$date
	Fri Apr 21 19:31:36 2023
$end
$version
	ModelSim Version 10.1d
$end
$timescale
	1ps
$end
$scope module flip_flop_D_vlg_vec_tst $end
$var reg 1 ! clock $end
$var reg 1 " entrada $end
$var reg 1 # limpa $end
$var wire 1 $ saida $end
$var wire 1 % saida_neg $end
$var wire 1 & sampler $end
$scope module i1 $end
$var wire 1 ' gnd $end
$var wire 1 ( vcc $end
$var wire 1 ) unknown $end
$var tri1 1 * devclrn $end
$var tri1 1 + devpor $end
$var tri1 1 , devoe $end
$var wire 1 - saida~output_o $end
$var wire 1 . saida_neg~output_o $end
$var wire 1 / clock~input_o $end
$var wire 1 0 entrada~input_o $end
$var wire 1 1 q_fio~feeder_combout $end
$var wire 1 2 limpa~input_o $end
$var wire 1 3 q_fio~q $end
$upscope $end
$upscope $end
$enddefinitions $end
#0
$dumpvars
0!
0"
0#
0$
1%
x&
0'
1(
x)
1*
1+
1,
0-
1.
0/
00
01
02
03
$end
#25000
1!
1/
0&
#40000
1"
10
1&
11
#50000
0!
0/
0&
#75000
1!
1/
1&
13
1-
0.
1$
0%
#80000
0"
00
0&
01
#100000
0!
0/
1&
#120000
1"
10
0&
11
#125000
1!
1/
1&
#150000
0!
0/
0&
#160000
0"
00
1&
01
#175000
1!
1/
0&
03
0-
1.
0$
1%
#200000
1"
0!
10
0/
1&
11
#225000
1!
1/
0&
13
1-
0.
1$
0%
#240000
0"
00
1&
01
#250000
0!
0/
0&
#275000
1!
1/
1&
03
0-
1.
0$
1%
#280000
1"
10
0&
11
#300000
0!
0/
1&
#320000
0"
00
0&
01
#325000
1!
1/
1&
#350000
0!
0/
0&
#360000
1"
10
1&
11
#375000
1!
1/
0&
13
1-
0.
1$
0%
#400000
0"
0!
00
0/
1&
01
#425000
1!
1/
0&
03
0-
1.
0$
1%
#440000
1"
10
1&
11
#450000
0!
0/
0&
#475000
1!
1/
1&
13
1-
0.
1$
0%
#480000
0"
00
0&
01
#500000
0!
0/
1&
#520000
1"
10
0&
11
#525000
1!
1/
1&
#550000
0!
0/
0&
#560000
0"
00
1&
01
#575000
1!
1/
0&
03
0-
1.
0$
1%
#600000
1"
0!
10
0/
1&
11
#625000
1!
1/
0&
13
1-
0.
1$
0%
#640000
0"
00
1&
01
#650000
0!
0/
0&
#675000
1!
1/
1&
03
0-
1.
0$
1%
#680000
1"
10
0&
11
#700000
0!
0/
1&
#720000
0"
00
0&
01
#725000
1!
1/
1&
#750000
0!
0/
0&
#760000
1"
10
1&
11
#775000
1!
1/
0&
13
1-
0.
1$
0%
#800000
0"
0!
00
0/
1&
01
#825000
1!
1/
0&
03
0-
1.
0$
1%
#840000
1"
10
1&
11
#850000
0!
0/
0&
#875000
1!
1/
1&
13
1-
0.
1$
0%
#880000
0"
00
0&
01
#900000
0!
0/
1&
#920000
1"
10
0&
11
#925000
1!
1/
1&
#950000
0!
0/
0&
#960000
0"
00
1&
01
#975000
1!
1/
0&
03
0-
1.
0$
1%
