exercicios e exemplos aula 5 e 6  TD/exemplo12/simulation/qsim/exemplo12.msim.vcd
$comment
	File created using the following command:
		vcd file exemplo12.msim.vcd -direction
$end
$date
	Thu Mar 16 19:27:41 2023
$end
$version
	ModelSim Version 10.1d
$end
$timescale
	1ps
$end
$scope module exemplo12_vlg_vec_tst $end
$var reg 4 ! a [3:0] $end
$var reg 2 " sel [1:0] $end
$var wire 1 # s $end
$var wire 1 $ sampler $end
$scope module i1 $end
$var wire 1 % gnd $end
$var wire 1 & vcc $end
$var wire 1 ' unknown $end
$var tri1 1 ( devclrn $end
$var tri1 1 ) devpor $end
$var tri1 1 * devoe $end
$var wire 1 + s~output_o $end
$var wire 1 , sel[1]~input_o $end
$var wire 1 - a[0]~input_o $end
$var wire 1 . a[1]~input_o $end
$var wire 1 / sel[0]~input_o $end
$var wire 1 0 Mux0~0_combout $end
$var wire 1 1 a[2]~input_o $end
$var wire 1 2 a[3]~input_o $end
$var wire 1 3 Mux0~1_combout $end
$upscope $end
$upscope $end
$enddefinitions $end
#0
$dumpvars
b0 !
b0 "
0#
x$
0%
1&
x'
1(
1)
1*
0+
0,
0-
0.
0/
00
01
02
03
$end
#12500
b1 !
1-
0$
10
13
1+
1#
#25000
b11 !
b1 "
b10 !
1/
0-
1.
1$
#37500
b11 !
1-
0$
#50000
b111 !
b11 "
b101 !
b10 "
b100 !
0/
1,
0-
0.
11
1$
00
03
0+
0#
13
1+
1#
#62500
b101 !
1-
0$
#75000
b111 !
b11 "
b110 !
1/
0-
1.
1$
10
03
0+
0#
#87500
b111 !
1-
0$
#100000
b1111 !
b1011 !
b1 "
b1001 !
b0 "
b1000 !
0/
0,
0-
0.
01
12
1$
00
13
1+
1#
03
0+
0#
#112500
b1001 !
1-
0$
10
13
1+
1#
#125000
b1011 !
b1 "
b1010 !
1/
0-
1.
1$
#137500
b1011 !
1-
0$
#150000
b1111 !
b11 "
b1101 !
b10 "
b1100 !
0/
1,
0-
0.
11
1$
00
#162500
b1101 !
1-
0$
#175000
b1111 !
b11 "
b1110 !
1/
0-
1.
1$
10
#187500
b1111 !
1-
0$
#200000
b111 !
b11 !
b1 "
b1 !
b0 "
b0 !
0/
0,
0-
0.
01
02
1$
00
03
0+
0#
#212500
b1 !
1-
0$
10
13
1+
1#
#225000
b11 !
b1 "
b10 !
1/
0-
1.
1$
#237500
b11 !
1-
0$
#250000
b111 !
b11 "
b101 !
b10 "
b100 !
0/
1,
0-
0.
11
1$
00
03
0+
0#
13
1+
1#
#262500
b101 !
1-
0$
#275000
b111 !
b11 "
b110 !
1/
0-
1.
1$
10
03
0+
0#
#287500
b111 !
1-
0$
#300000
b1111 !
b1011 !
b1 "
b1001 !
b0 "
b1000 !
0/
0,
0-
0.
01
12
1$
00
13
1+
1#
03
0+
0#
#312500
b1001 !
1-
0$
10
13
1+
1#
#325000
b1011 !
b1 "
b1010 !
1/
0-
1.
1$
#337500
b1011 !
1-
0$
#350000
b1111 !
b11 "
b1101 !
b10 "
b1100 !
0/
1,
0-
0.
11
1$
00
#362500
b1101 !
1-
0$
#375000
b1111 !
b11 "
b1110 !
1/
0-
1.
1$
10
#387500
b1111 !
1-
0$
#400000
b111 !
b11 !
b1 "
b1 !
b0 "
b0 !
0/
0,
0-
0.
01
02
1$
00
03
0+
0#
#412500
b1 !
1-
0$
10
13
1+
1#
#425000
b11 !
b1 "
b10 !
1/
0-
1.
1$
#437500
b11 !
1-
0$
#450000
b111 !
b11 "
b101 !
b10 "
b100 !
0/
1,
0-
0.
11
1$
00
03
0+
0#
13
1+
1#
#462500
b101 !
1-
0$
#475000
b111 !
b11 "
b110 !
1/
0-
1.
1$
10
03
0+
0#
#487500
b111 !
1-
0$
#500000
b1111 !
b1011 !
b1 "
b1001 !
b0 "
b1000 !
0/
0,
0-
0.
01
12
1$
00
13
1+
1#
03
0+
0#
#512500
b1001 !
1-
0$
10
13
1+
1#
#525000
b1011 !
b1 "
b1010 !
1/
0-
1.
1$
#537500
b1011 !
1-
0$
#550000
b1111 !
b11 "
b1101 !
b10 "
b1100 !
0/
1,
0-
0.
11
1$
00
#562500
b1101 !
1-
0$
#575000
b1111 !
b11 "
b1110 !
1/
0-
1.
1$
10
#587500
b1111 !
1-
0$
#600000
b111 !
b11 !
b1 "
b1 !
b0 "
b0 !
0/
0,
0-
0.
01
02
1$
00
03
0+
0#
#612500
b1 !
1-
0$
10
13
1+
1#
#625000
b11 !
b1 "
b10 !
1/
0-
1.
1$
#637500
b11 !
1-
0$
#650000
b111 !
b11 "
b101 !
b10 "
b100 !
0/
1,
0-
0.
11
1$
00
03
0+
0#
13
1+
1#
#662500
b101 !
1-
0$
#675000
b111 !
b11 "
b110 !
1/
0-
1.
1$
10
03
0+
0#
#687500
b111 !
1-
0$
#700000
b1111 !
b1011 !
b1 "
b1001 !
b0 "
b1000 !
0/
0,
0-
0.
01
12
1$
00
13
1+
1#
03
0+
0#
#712500
b1001 !
1-
0$
10
13
1+
1#
#725000
b1011 !
b1 "
b1010 !
1/
0-
1.
1$
#737500
b1011 !
1-
0$
#750000
b1111 !
b11 "
b1101 !
b10 "
b1100 !
0/
1,
0-
0.
11
1$
00
#762500
b1101 !
1-
0$
#775000
b1111 !
b11 "
b1110 !
1/
0-
1.
1$
10
#787500
b1111 !
1-
0$
#800000
b111 !
b11 !
b1 "
b1 !
b0 "
b0 !
0/
0,
0-
0.
01
02
1$
00
03
0+
0#
#812500
b1 !
1-
0$
10
13
1+
1#
#825000
b11 !
b1 "
b10 !
1/
0-
1.
1$
#837500
b11 !
1-
0$
#850000
b111 !
b11 "
b101 !
b10 "
b100 !
0/
1,
0-
0.
11
1$
00
03
0+
0#
13
1+
1#
#862500
b101 !
1-
0$
#875000
b111 !
b11 "
b110 !
1/
0-
1.
1$
10
03
0+
0#
#887500
b111 !
1-
0$
#900000
b1111 !
b1011 !
b1 "
b1001 !
b0 "
b1000 !
0/
0,
0-
0.
01
12
1$
00
13
1+
1#
03
0+
0#
#912500
b1001 !
1-
0$
10
13
1+
1#
#925000
b1011 !
b1 "
b1010 !
1/
0-
1.
1$
#937500
b1011 !
1-
0$
#950000
b1111 !
b11 "
b1101 !
b10 "
b1100 !
0/
1,
0-
0.
11
1$
00
#962500
b1101 !
1-
0$
#975000
b1111 !
b11 "
b1110 !
1/
0-
1.
1$
10
#987500
b1111 !
1-
0$
