trabalho 1 td/shift à esquerda/simulation/qsim/shifterESQ.msim.vcd
$comment
	File created using the following command:
		vcd file shifterESQ.msim.vcd -direction
$end
$date
	Mon Mar 27 15:01:19 2023
$end
$version
	ModelSim Version 10.1d
$end
$timescale
	1ps
$end
$scope module shifterESQ_vlg_vec_tst $end
$var reg 4 ! in1 [3:0] $end
$var reg 1 " indesl $end
$var wire 1 # outS [3] $end
$var wire 1 $ outS [2] $end
$var wire 1 % outS [1] $end
$var wire 1 & outS [0] $end
$var wire 1 ' over $end
$var wire 1 ( sampler $end
$scope module i1 $end
$var wire 1 ) gnd $end
$var wire 1 * vcc $end
$var wire 1 + unknown $end
$var tri1 1 , devclrn $end
$var tri1 1 - devpor $end
$var tri1 1 . devoe $end
$var wire 1 / over~output_o $end
$var wire 1 0 outS[0]~output_o $end
$var wire 1 1 outS[1]~output_o $end
$var wire 1 2 outS[2]~output_o $end
$var wire 1 3 outS[3]~output_o $end
$var wire 1 4 in1[3]~input_o $end
$var wire 1 5 in1[2]~input_o $end
$var wire 1 6 indesl~input_o $end
$var wire 1 7 over~0_combout $end
$var wire 1 8 in1[0]~input_o $end
$var wire 1 9 mux1|Selector0~0_combout $end
$var wire 1 : in1[1]~input_o $end
$var wire 1 ; mux2|Selector0~0_combout $end
$var wire 1 < mux3|Selector0~0_combout $end
$var wire 1 = mux4|Selector0~0_combout $end
$upscope $end
$upscope $end
$enddefinitions $end
#0
$dumpvars
b0 !
0"
0&
0%
0$
0#
0'
x(
0)
1*
x+
1,
1-
1.
0/
00
01
02
03
04
05
06
07
08
09
0:
0;
0<
0=
$end
#25000
b1 !
18
0(
19
10
1&
#50000
b11 !
1"
b10 !
08
1:
16
1(
09
1<
00
12
0&
1$
#75000
b11 !
18
0(
1;
11
1%
#100000
b111 !
b101 !
0"
b100 !
08
0:
15
06
1(
0;
01
0%
#125000
b101 !
18
0(
19
10
1&
#150000
b111 !
1"
b110 !
08
1:
16
1(
09
1=
17
00
13
1/
0&
1#
1'
#175000
b111 !
18
0(
1;
11
1%
#200000
b1111 !
b1011 !
b1001 !
0"
b1000 !
08
0:
05
14
06
1(
0;
0<
07
01
02
0/
0%
0$
0'
#225000
b1001 !
18
0(
19
10
1&
#250000
b1011 !
1"
b1010 !
08
1:
16
1(
09
1<
0=
17
00
12
03
1/
0&
1$
0#
1'
#275000
b1011 !
18
0(
1;
11
1%
#300000
b1111 !
b1101 !
0"
b1100 !
08
0:
15
06
1(
0;
1=
07
01
13
0/
0%
1#
0'
#325000
b1101 !
18
0(
19
10
1&
#350000
b1111 !
1"
b1110 !
08
1:
16
1(
09
00
0&
#375000
b1111 !
18
0(
1;
11
1%
#400000
b111 !
b11 !
b1 !
0"
b0 !
08
0:
05
04
06
1(
0;
0<
0=
01
02
03
0%
0$
0#
#425000
b1 !
18
0(
19
10
1&
#450000
b11 !
1"
b10 !
08
1:
16
1(
09
1<
00
12
0&
1$
#475000
b11 !
18
0(
1;
11
1%
#500000
b111 !
b101 !
0"
b100 !
08
0:
15
06
1(
0;
01
0%
#525000
b101 !
18
0(
19
10
1&
#550000
b111 !
1"
b110 !
08
1:
16
1(
09
1=
17
00
13
1/
0&
1#
1'
#575000
b111 !
18
0(
1;
11
1%
#600000
b1111 !
b1011 !
b1001 !
0"
b1000 !
08
0:
05
14
06
1(
0;
0<
07
01
02
0/
0%
0$
0'
#625000
b1001 !
18
0(
19
10
1&
#650000
b1011 !
1"
b1010 !
08
1:
16
1(
09
1<
0=
17
00
12
03
1/
0&
1$
0#
1'
#675000
b1011 !
18
0(
1;
11
1%
#700000
b1111 !
b1101 !
0"
b1100 !
08
0:
15
06
1(
0;
1=
07
01
13
0/
0%
1#
0'
#725000
b1101 !
18
0(
19
10
1&
#750000
b1111 !
1"
b1110 !
08
1:
16
1(
09
00
0&
#775000
b1111 !
18
0(
1;
11
1%
#800000
b111 !
b11 !
b1 !
0"
b0 !
08
0:
05
04
06
1(
0;
0<
0=
01
02
03
0%
0$
0#
#825000
b1 !
18
0(
19
10
1&
#850000
b11 !
1"
b10 !
08
1:
16
1(
09
1<
00
12
0&
1$
#875000
b11 !
18
0(
1;
11
1%
#900000
b111 !
b101 !
0"
b100 !
08
0:
15
06
1(
0;
01
0%
#925000
b101 !
18
0(
19
10
1&
#950000
b111 !
1"
b110 !
08
1:
16
1(
09
1=
17
00
13
1/
0&
1#
1'
#975000
b111 !
18
0(
1;
11
1%
