aula pratica 10-03-2023 ... Somador/somadorCoompleto/teste/simulation/qsim/somadorcompleto.msim.vcd
$comment
	File created using the following command:
		vcd file somadorcompleto.msim.vcd -direction
$end
$date
	Fri Mar 10 14:38:55 2023
$end
$version
	ModelSim Version 10.1d
$end
$timescale
	1ps
$end
$scope module somadorcompleto_vlg_vec_tst $end
$var reg 1 ! a1 $end
$var reg 1 " b1 $end
$var reg 1 # c $end
$var wire 1 $ carry1 $end
$var wire 1 % sum1 $end
$var wire 1 & sampler $end
$scope module i1 $end
$var wire 1 ' gnd $end
$var wire 1 ( vcc $end
$var wire 1 ) unknown $end
$var tri1 1 * devclrn $end
$var tri1 1 + devpor $end
$var tri1 1 , devoe $end
$var wire 1 - sum1~output_o $end
$var wire 1 . carry1~output_o $end
$var wire 1 / c~input_o $end
$var wire 1 0 a1~input_o $end
$var wire 1 1 b1~input_o $end
$var wire 1 2 meio1|sum~0_combout $end
$var wire 1 3 carry1~0_combout $end
$upscope $end
$upscope $end
$enddefinitions $end
#0
$dumpvars
0!
0"
0#
0$
0%
x&
0'
1(
x)
1*
1+
1,
0-
0.
0/
00
01
02
03
$end
#10000
1#
1/
0&
12
1-
1%
#20000
1"
0#
11
0/
1&
#30000
1#
1/
0&
13
02
1.
0-
1$
0%
#40000
1!
0"
0#
10
01
0/
1&
03
12
0.
1-
0$
1%
#50000
1#
1/
0&
13
02
1.
0-
1$
0%
#60000
1"
0#
11
0/
1&
#70000
1#
1/
0&
12
1-
1%
#80000
0!
0"
0#
00
01
0/
1&
03
02
0.
0-
0$
0%
#90000
1#
1/
0&
12
1-
1%
#100000
1"
0#
11
0/
1&
#110000
1#
1/
0&
13
02
1.
0-
1$
0%
#120000
1!
0"
0#
10
01
0/
1&
03
12
0.
1-
0$
1%
#130000
1#
1/
0&
13
02
1.
0-
1$
0%
#140000
1"
0#
11
0/
1&
#150000
1#
1/
0&
12
1-
1%
#160000
0!
0"
0#
00
01
0/
1&
03
02
0.
0-
0$
0%
#170000
1#
1/
0&
12
1-
1%
#180000
1"
0#
11
0/
1&
#190000
1#
1/
0&
13
02
1.
0-
1$
0%
#200000
1!
0"
0#
10
01
0/
1&
03
12
0.
1-
0$
1%
#210000
1#
1/
0&
13
02
1.
0-
1$
0%
#220000
1"
0#
11
0/
1&
#230000
1#
1/
0&
12
1-
1%
#240000
0!
0"
0#
00
01
0/
1&
03
02
0.
0-
0$
0%
#250000
1#
1/
0&
12
1-
1%
#260000
1"
0#
11
0/
1&
#270000
1#
1/
0&
13
02
1.
0-
1$
0%
#280000
1!
0"
0#
10
01
0/
1&
03
12
0.
1-
0$
1%
#290000
1#
1/
0&
13
02
1.
0-
1$
0%
#300000
1"
0#
11
0/
1&
#310000
1#
1/
0&
12
1-
1%
#320000
0!
0"
0#
00
01
0/
1&
03
02
0.
0-
0$
0%
#330000
1#
1/
0&
12
1-
1%
#340000
1"
0#
11
0/
1&
#350000
1#
1/
0&
13
02
1.
0-
1$
0%
#360000
1!
0"
0#
10
01
0/
1&
03
12
0.
1-
0$
1%
#370000
1#
1/
0&
13
02
1.
0-
1$
0%
#380000
1"
0#
11
0/
1&
#390000
1#
1/
0&
12
1-
1%
#400000
0!
0"
0#
00
01
0/
1&
03
02
0.
0-
0$
0%
#410000
1#
1/
0&
12
1-
1%
#420000
1"
0#
11
0/
1&
#430000
1#
1/
0&
13
02
1.
0-
1$
0%
#440000
1!
0"
0#
10
01
0/
1&
03
12
0.
1-
0$
1%
#450000
1#
1/
0&
13
02
1.
0-
1$
0%
#460000
1"
0#
11
0/
1&
#470000
1#
1/
0&
12
1-
1%
#480000
0!
0"
0#
00
01
0/
1&
03
02
0.
0-
0$
0%
#490000
1#
1/
0&
12
1-
1%
#500000
1"
0#
11
0/
1&
#510000
1#
1/
0&
13
02
1.
0-
1$
0%
#520000
1!
0"
0#
10
01
0/
1&
03
12
0.
1-
0$
1%
#530000
1#
1/
0&
13
02
1.
0-
1$
0%
#540000
1"
0#
11
0/
1&
#550000
1#
1/
0&
12
1-
1%
#560000
0!
0"
0#
00
01
0/
1&
03
02
0.
0-
0$
0%
#570000
1#
1/
0&
12
1-
1%
#580000
1"
0#
11
0/
1&
#590000
1#
1/
0&
13
02
1.
0-
1$
0%
#600000
1!
0"
0#
10
01
0/
1&
03
12
0.
1-
0$
1%
#610000
1#
1/
0&
13
02
1.
0-
1$
0%
#620000
1"
0#
11
0/
1&
#630000
1#
1/
0&
12
1-
1%
#640000
0!
0"
0#
00
01
0/
1&
03
02
0.
0-
0$
0%
#650000
1#
1/
0&
12
1-
1%
#660000
1"
0#
11
0/
1&
#670000
1#
1/
0&
13
02
1.
0-
1$
0%
#680000
1!
0"
0#
10
01
0/
1&
03
12
0.
1-
0$
1%
#690000
1#
1/
0&
13
02
1.
0-
1$
0%
#700000
1"
0#
11
0/
1&
#710000
1#
1/
0&
12
1-
1%
#720000
0!
0"
0#
00
01
0/
1&
03
02
0.
0-
0$
0%
#730000
1#
1/
0&
12
1-
1%
#740000
1"
0#
11
0/
1&
#750000
1#
1/
0&
13
02
1.
0-
1$
0%
#760000
1!
0"
0#
10
01
0/
1&
03
12
0.
1-
0$
1%
#770000
1#
1/
0&
13
02
1.
0-
1$
0%
#780000
1"
0#
11
0/
1&
#790000
1#
1/
0&
12
1-
1%
#800000
0!
0"
0#
00
01
0/
1&
03
02
0.
0-
0$
0%
#810000
1#
1/
0&
12
1-
1%
#820000
1"
0#
11
0/
1&
#830000
1#
1/
0&
13
02
1.
0-
1$
0%
#840000
1!
0"
0#
10
01
0/
1&
03
12
0.
1-
0$
1%
#850000
1#
1/
0&
13
02
1.
0-
1$
0%
#860000
1"
0#
11
0/
1&
#870000
1#
1/
0&
12
1-
1%
#880000
0!
0"
0#
00
01
0/
1&
03
02
0.
0-
0$
0%
#890000
1#
1/
0&
12
1-
1%
#900000
1"
0#
11
0/
1&
#910000
1#
1/
0&
13
02
1.
0-
1$
0%
#920000
1!
0"
0#
10
01
0/
1&
03
12
0.
1-
0$
1%
#930000
1#
1/
0&
13
02
1.
0-
1$
0%
#940000
1"
0#
11
0/
1&
#950000
1#
1/
0&
12
1-
1%
#960000
0!
0"
0#
00
01
0/
1&
03
02
0.
0-
0$
0%
#970000
1#
1/
0&
12
1-
1%
#980000
1"
0#
11
0/
1&
#990000
1#
1/
0&
13
02
1.
0-
1$
0%
