exercicios e exemplos aula 10/17_um contador de 3 bits_com processos/simulation/qsim/cont_process.msim.vcd
$comment
	File created using the following command:
		vcd file cont_process.msim.vcd -direction
$end
$date
	Thu Apr 27 20:35:22 2023
$end
$version
	ModelSim Version 10.1d
$end
$timescale
	1ps
$end
$scope module cont_process_vlg_vec_tst $end
$var reg 1 ! clear $end
$var reg 1 " clock $end
$var reg 3 # d [2:0] $end
$var reg 1 $ load $end
$var wire 1 % q [2] $end
$var wire 1 & q [1] $end
$var wire 1 ' q [0] $end
$var wire 1 ( sampler $end
$scope module i1 $end
$var wire 1 ) gnd $end
$var wire 1 * vcc $end
$var wire 1 + unknown $end
$var tri1 1 , devclrn $end
$var tri1 1 - devpor $end
$var tri1 1 . devoe $end
$var wire 1 / q[0]~output_o $end
$var wire 1 0 q[1]~output_o $end
$var wire 1 1 q[2]~output_o $end
$var wire 1 2 clock~input_o $end
$var wire 1 3 clock~inputclkctrl_outclk $end
$var wire 1 4 d[0]~input_o $end
$var wire 1 5 q_temp[0]~feeder_combout $end
$var wire 1 6 clear~input_o $end
$var wire 1 7 clear~inputclkctrl_outclk $end
$var wire 1 8 load~input_o $end
$var wire 1 9 d[1]~input_o $end
$var wire 1 : q_temp[1]~feeder_combout $end
$var wire 1 ; d[2]~input_o $end
$var wire 1 < q_temp[2]~feeder_combout $end
$var wire 1 = q_temp [2] $end
$var wire 1 > q_temp [1] $end
$var wire 1 ? q_temp [0] $end
$upscope $end
$upscope $end
$enddefinitions $end
#0
$dumpvars
1!
0"
b0 #
0$
0'
0&
0%
x(
0)
1*
x+
1,
1-
1.
0/
00
01
02
03
04
05
16
17
08
09
0:
0;
0<
0?
0>
0=
$end
#25000
1"
12
13
0(
#40000
1$
18
1(
#50000
0"
02
03
0(
#75000
1"
12
13
1(
#80000
0$
08
0(
#100000
b1 #
0"
14
02
03
1(
15
#120000
1$
18
0(
#125000
1"
12
13
1(
#150000
0"
02
03
0(
#160000
0$
08
1(
#175000
1"
12
13
0(
#200000
b11 #
b10 #
1$
0"
04
19
18
02
03
1(
05
1:
#225000
1"
12
13
0(
#240000
0$
08
1(
#250000
0"
02
03
0(
#275000
1"
12
13
1(
#280000
1$
18
0(
#300000
b11 #
0"
14
02
03
1(
15
#320000
0$
08
0(
#325000
1"
12
13
1(
#350000
0"
02
03
0(
#360000
1$
18
1(
#375000
1"
12
13
0(
#400000
b111 #
b101 #
b100 #
0$
0"
04
09
1;
08
02
03
1(
05
0:
1<
#425000
1"
12
13
0(
#440000
1$
18
1(
#450000
0"
02
03
0(
#475000
1"
12
13
1(
#480000
0$
08
0(
#500000
b101 #
0"
14
02
03
1(
15
#520000
1$
18
0(
#525000
1"
12
13
1(
#550000
0"
02
03
0(
#560000
0$
08
1(
#575000
1"
12
13
0(
#600000
b111 #
b110 #
1$
0"
04
19
18
02
03
1(
05
1:
#625000
1"
12
13
0(
#640000
0$
08
1(
#650000
0"
02
03
0(
#675000
1"
12
13
1(
#680000
1$
18
0(
#700000
b111 #
0"
14
02
03
1(
15
#720000
0$
08
0(
#725000
1"
12
13
1(
#750000
0"
02
03
0(
#760000
1$
18
1(
#775000
1"
12
13
0(
#800000
b11 #
b1 #
b0 #
0$
0"
04
09
0;
08
02
03
1(
05
0:
0<
#825000
1"
12
13
0(
#840000
1$
18
1(
#850000
0"
02
03
0(
#875000
1"
12
13
1(
#880000
0$
08
0(
#900000
b1 #
0"
14
02
03
1(
15
#920000
1$
18
0(
#925000
1"
12
13
1(
#950000
0"
02
03
0(
#960000
0$
08
1(
#975000
1"
12
13
0(
