exercicios e exemplos aula 10/ex17 01/simulation/qsim/contador_assin_3.msim.vcd
$comment
	File created using the following command:
		vcd file contador_assin_3.msim.vcd -direction
$end
$date
	Sat Apr 29 16:46:03 2023
$end
$version
	ModelSim Version 10.1d
$end
$timescale
	1ps
$end
$scope module contador_assin_3_vlg_vec_tst $end
$var reg 1 ! clear $end
$var reg 1 " clk $end
$var reg 3 # d [2:0] $end
$var wire 1 $ q_not [2] $end
$var wire 1 % q_not [1] $end
$var wire 1 & q_not [0] $end
$var wire 1 ' q_out [2] $end
$var wire 1 ( q_out [1] $end
$var wire 1 ) q_out [0] $end
$var wire 1 * sampler $end
$scope module i1 $end
$var wire 1 + gnd $end
$var wire 1 , vcc $end
$var wire 1 - unknown $end
$var tri1 1 . devclrn $end
$var tri1 1 / devpor $end
$var tri1 1 0 devoe $end
$var wire 1 1 clk~input_o $end
$var wire 1 2 q_out[0]~output_o $end
$var wire 1 3 q_out[1]~output_o $end
$var wire 1 4 q_out[2]~output_o $end
$var wire 1 5 q_not[0]~output_o $end
$var wire 1 6 q_not[1]~output_o $end
$var wire 1 7 q_not[2]~output_o $end
$var wire 1 8 d[0]~input_o $end
$var wire 1 9 clear~input_o $end
$var wire 1 : q_out~0_combout $end
$var wire 1 ; d[1]~input_o $end
$var wire 1 < q_out~1_combout $end
$var wire 1 = d[2]~input_o $end
$var wire 1 > q_out~2_combout $end
$var wire 1 ? q_temp [2] $end
$var wire 1 @ q_temp [1] $end
$var wire 1 A q_temp [0] $end
$upscope $end
$upscope $end
$enddefinitions $end
#0
$dumpvars
0!
0"
b0 #
1&
1%
1$
0)
0(
0'
x*
0+
1,
x-
1.
1/
10
01
02
03
04
15
16
17
08
09
0:
0;
0<
0=
0>
0A
0@
0?
$end
#25000
1"
11
0*
#50000
0"
01
1*
#75000
1"
11
0*
#100000
b1 #
0"
18
01
1*
#125000
1"
11
0*
1A
1:
12
05
1)
0&
#150000
0"
01
1*
#175000
1"
11
0*
#200000
b11 #
b10 #
0"
08
1;
01
1*
#225000
1"
11
0*
0A
0:
02
15
0)
1&
1@
1<
13
06
1(
0%
#250000
0"
01
1*
#275000
1"
11
0*
#300000
b11 #
0"
18
01
1*
#325000
1"
11
0*
1A
1:
12
05
1)
0&
#350000
0"
01
1*
#375000
1"
11
0*
#400000
b111 #
b101 #
b100 #
0"
08
0;
1=
01
1*
#425000
1"
11
0*
0A
0:
02
15
0)
1&
0@
0<
03
16
0(
1%
1?
1>
14
07
1'
0$
#450000
0"
01
1*
#475000
1"
11
0*
#500000
b101 #
0"
18
01
1*
#525000
1"
11
0*
1A
1:
12
05
1)
0&
#550000
0"
01
1*
#575000
1"
11
0*
#600000
b111 #
b110 #
0"
08
1;
01
1*
#625000
1"
11
0*
0A
0:
02
15
0)
1&
1@
1<
13
06
1(
0%
#650000
0"
01
1*
#675000
1"
11
0*
#700000
b111 #
0"
18
01
1*
#725000
1"
11
0*
1A
1:
12
05
1)
0&
#750000
0"
01
1*
#775000
1"
11
0*
#800000
b11 #
b1 #
b0 #
0"
08
0;
0=
01
1*
#825000
1"
11
0*
0A
0:
02
15
0)
1&
0@
0<
03
16
0(
1%
0?
0>
04
17
0'
1$
#850000
0"
01
1*
#875000
1"
11
0*
#900000
b1 #
0"
18
01
1*
#925000
1"
11
0*
1A
1:
12
05
1)
0&
#950000
0"
01
1*
#975000
1"
11
0*
