aula pratica 10-03-2023 ... Somador/somadorParalelo- uzando meio somador/simulation/qsim/somadorparalelo.msim.vcd
$comment
	File created using the following command:
		vcd file somadorparalelo.msim.vcd -direction
$end
$date
	Fri Mar 10 17:53:59 2023
$end
$version
	ModelSim Version 10.1d
$end
$timescale
	1ps
$end
$scope module somadorparalelo_vlg_vec_tst $end
$var reg 4 ! a [3:0] $end
$var reg 4 " b [3:0] $end
$var wire 1 # carry $end
$var wire 1 $ sum [3] $end
$var wire 1 % sum [2] $end
$var wire 1 & sum [1] $end
$var wire 1 ' sum [0] $end
$var wire 1 ( sampler $end
$scope module i1 $end
$var wire 1 ) gnd $end
$var wire 1 * vcc $end
$var wire 1 + unknown $end
$var tri1 1 , devclrn $end
$var tri1 1 - devpor $end
$var tri1 1 . devoe $end
$var wire 1 / sum[0]~output_o $end
$var wire 1 0 sum[1]~output_o $end
$var wire 1 1 sum[2]~output_o $end
$var wire 1 2 sum[3]~output_o $end
$var wire 1 3 carry~output_o $end
$var wire 1 4 b[0]~input_o $end
$var wire 1 5 a[0]~input_o $end
$var wire 1 6 meio|sum~combout $end
$var wire 1 7 a[1]~input_o $end
$var wire 1 8 b[1]~input_o $end
$var wire 1 9 meio1|sum~0_combout $end
$var wire 1 : count3~0_combout $end
$var wire 1 ; a[2]~input_o $end
$var wire 1 < b[2]~input_o $end
$var wire 1 = meio3|sum~0_combout $end
$var wire 1 > a[3]~input_o $end
$var wire 1 ? count6~0_combout $end
$var wire 1 @ count6~1_combout $end
$var wire 1 A b[3]~input_o $end
$var wire 1 B meio5|sum~combout $end
$var wire 1 C carry~0_combout $end
$upscope $end
$upscope $end
$enddefinitions $end
#0
$dumpvars
b0 !
b0 "
0#
0'
0&
0%
0$
x(
0)
1*
x+
1,
1-
1.
0/
00
01
02
03
04
05
06
07
08
09
0:
0;
0<
0=
0>
0?
0@
0A
0B
0C
$end
#5000
b1000 !
b1000 "
1A
1>
0(
1C
13
1#
#10000
b1100 !
b1100 "
b100 !
b100 "
1<
0A
1;
0>
1(
1?
0C
03
0#
1B
12
1$
#15000
b1100 !
b1100 "
1A
1>
0(
1C
13
1#
#20000
b1110 !
b1110 "
b1010 !
b1010 "
b10 !
b10 "
18
0<
0A
17
0;
0>
1(
1:
0?
0C
03
0#
1=
0B
11
02
1%
0$
#25000
b1010 !
b1010 "
1A
1>
0(
1C
13
1#
#30000
b1110 !
b1110 "
b110 !
b110 "
1<
0A
1;
0>
1(
1@
1?
0C
03
0#
1B
12
1$
#35000
b1110 !
b1110 "
1A
1>
0(
1C
13
1#
#40000
b1111 !
b1111 "
b1101 !
b1101 "
b1001 !
b1001 "
b1 !
b1 "
14
08
0<
0A
15
07
0;
0>
1(
0:
0@
0?
19
0C
10
03
1&
0#
0=
0B
01
02
0%
0$
#45000
b1001 !
b1001 "
1A
1>
0(
1C
13
1#
#50000
b1101 !
b1101 "
b101 !
b101 "
1<
0A
1;
0>
1(
1?
0C
03
0#
1B
12
1$
#55000
b1101 !
b1101 "
1A
1>
0(
1C
13
1#
#60000
b1111 !
b1111 "
b1011 !
b1011 "
b11 !
b11 "
18
0<
0A
17
0;
0>
1(
1:
0?
0C
03
0#
1=
0B
11
02
1%
0$
#65000
b1011 !
b1011 "
1A
1>
0(
1C
13
1#
#70000
b1111 !
b1111 "
b111 !
b111 "
1<
0A
1;
0>
1(
1@
1?
0C
03
0#
1B
12
1$
#75000
b1111 !
b1111 "
1A
1>
0(
1C
13
1#
#80000
b1110 !
b1110 "
b1100 !
b1100 "
b1000 !
b1000 "
b0 !
b0 "
04
08
0<
0A
05
07
0;
0>
1(
0:
0@
0?
09
0C
00
03
0&
0#
0=
0B
01
02
0%
0$
#85000
b1000 !
b1000 "
1A
1>
0(
1C
13
1#
#90000
b1100 !
b1100 "
b100 !
b100 "
1<
0A
1;
0>
1(
1?
0C
03
0#
1B
12
1$
#95000
b1100 !
b1100 "
1A
1>
0(
1C
13
1#
#100000
b1110 !
b1110 "
b1010 !
b1010 "
b10 !
b10 "
18
0<
0A
17
0;
0>
1(
1:
0?
0C
03
0#
1=
0B
11
02
1%
0$
#105000
b1010 !
b1010 "
1A
1>
0(
1C
13
1#
#110000
b1110 !
b1110 "
b110 !
b110 "
1<
0A
1;
0>
1(
1@
1?
0C
03
0#
1B
12
1$
#115000
b1110 !
b1110 "
1A
1>
0(
1C
13
1#
#120000
b1111 !
b1111 "
b1101 !
b1101 "
b1001 !
b1001 "
b1 !
b1 "
14
08
0<
0A
15
07
0;
0>
1(
0:
0@
0?
19
0C
10
03
1&
0#
0=
0B
01
02
0%
0$
#125000
b1001 !
b1001 "
1A
1>
0(
1C
13
1#
#130000
b1101 !
b1101 "
b101 !
b101 "
1<
0A
1;
0>
1(
1?
0C
03
0#
1B
12
1$
#135000
b1101 !
b1101 "
1A
1>
0(
1C
13
1#
#140000
b1111 !
b1111 "
b1011 !
b1011 "
b11 !
b11 "
18
0<
0A
17
0;
0>
1(
1:
0?
0C
03
0#
1=
0B
11
02
1%
0$
#145000
b1011 !
b1011 "
1A
1>
0(
1C
13
1#
#150000
b1111 !
b1111 "
b111 !
b111 "
1<
0A
1;
0>
1(
1@
1?
0C
03
0#
1B
12
1$
#155000
b1111 !
b1111 "
1A
1>
0(
1C
13
1#
#160000
b1110 !
b1110 "
b1100 !
b1100 "
b1000 !
b1000 "
b0 !
b0 "
04
08
0<
0A
05
07
0;
0>
1(
0:
0@
0?
09
0C
00
03
0&
0#
0=
0B
01
02
0%
0$
#165000
b1000 !
b1000 "
1A
1>
0(
1C
13
1#
#170000
b1100 !
b1100 "
b100 !
b100 "
1<
0A
1;
0>
1(
1?
0C
03
0#
1B
12
1$
#175000
b1100 !
b1100 "
1A
1>
0(
1C
13
1#
#180000
b1110 !
b1110 "
b1010 !
b1010 "
b10 !
b10 "
18
0<
0A
17
0;
0>
1(
1:
0?
0C
03
0#
1=
0B
11
02
1%
0$
#185000
b1010 !
b1010 "
1A
1>
0(
1C
13
1#
#190000
b1110 !
b1110 "
b110 !
b110 "
1<
0A
1;
0>
1(
1@
1?
0C
03
0#
1B
12
1$
#195000
b1110 !
b1110 "
1A
1>
0(
1C
13
1#
#200000
b1111 !
b1111 "
b1101 !
b1101 "
b1001 !
b1001 "
b1 !
b1 "
14
08
0<
0A
15
07
0;
0>
1(
0:
0@
0?
19
0C
10
03
1&
0#
0=
0B
01
02
0%
0$
#205000
b1001 !
b1001 "
1A
1>
0(
1C
13
1#
#210000
b1101 !
b1101 "
b101 !
b101 "
1<
0A
1;
0>
1(
1?
0C
03
0#
1B
12
1$
#215000
b1101 !
b1101 "
1A
1>
0(
1C
13
1#
#220000
b1111 !
b1111 "
b1011 !
b1011 "
b11 !
b11 "
18
0<
0A
17
0;
0>
1(
1:
0?
0C
03
0#
1=
0B
11
02
1%
0$
#225000
b1011 !
b1011 "
1A
1>
0(
1C
13
1#
#230000
b1111 !
b1111 "
b111 !
b111 "
1<
0A
1;
0>
1(
1@
1?
0C
03
0#
1B
12
1$
#235000
b1111 !
b1111 "
1A
1>
0(
1C
13
1#
#240000
b1110 !
b1110 "
b1100 !
b1100 "
b1000 !
b1000 "
b0 !
b0 "
04
08
0<
0A
05
07
0;
0>
1(
0:
0@
0?
09
0C
00
03
0&
0#
0=
0B
01
02
0%
0$
#245000
b1000 !
b1000 "
1A
1>
0(
1C
13
1#
#250000
b1100 !
b1100 "
b100 !
b100 "
1<
0A
1;
0>
1(
1?
0C
03
0#
1B
12
1$
#255000
b1100 !
b1100 "
1A
1>
0(
1C
13
1#
#260000
b1110 !
b1110 "
b1010 !
b1010 "
b10 !
b10 "
18
0<
0A
17
0;
0>
1(
1:
0?
0C
03
0#
1=
0B
11
02
1%
0$
#265000
b1010 !
b1010 "
1A
1>
0(
1C
13
1#
#270000
b1110 !
b1110 "
b110 !
b110 "
1<
0A
1;
0>
1(
1@
1?
0C
03
0#
1B
12
1$
#275000
b1110 !
b1110 "
1A
1>
0(
1C
13
1#
#280000
b1111 !
b1111 "
b1101 !
b1101 "
b1001 !
b1001 "
b1 !
b1 "
14
08
0<
0A
15
07
0;
0>
1(
0:
0@
0?
19
0C
10
03
1&
0#
0=
0B
01
02
0%
0$
#285000
b1001 !
b1001 "
1A
1>
0(
1C
13
1#
#290000
b1101 !
b1101 "
b101 !
b101 "
1<
0A
1;
0>
1(
1?
0C
03
0#
1B
12
1$
#295000
b1101 !
b1101 "
1A
1>
0(
1C
13
1#
#300000
b1111 !
b1111 "
b1011 !
b1011 "
b11 !
b11 "
18
0<
0A
17
0;
0>
1(
1:
0?
0C
03
0#
1=
0B
11
02
1%
0$
#305000
b1011 !
b1011 "
1A
1>
0(
1C
13
1#
#310000
b1111 !
b1111 "
b111 !
b111 "
1<
0A
1;
0>
1(
1@
1?
0C
03
0#
1B
12
1$
#315000
b1111 !
b1111 "
1A
1>
0(
1C
13
1#
#320000
b1110 !
b1110 "
b1100 !
b1100 "
b1000 !
b1000 "
b0 !
b0 "
04
08
0<
0A
05
07
0;
0>
1(
0:
0@
0?
09
0C
00
03
0&
0#
0=
0B
01
02
0%
0$
#325000
b1000 !
b1000 "
1A
1>
0(
1C
13
1#
#330000
b1100 !
b1100 "
b100 !
b100 "
1<
0A
1;
0>
1(
1?
0C
03
0#
1B
12
1$
#335000
b1100 !
b1100 "
1A
1>
0(
1C
13
1#
#340000
b1110 !
b1110 "
b1010 !
b1010 "
b10 !
b10 "
18
0<
0A
17
0;
0>
1(
1:
0?
0C
03
0#
1=
0B
11
02
1%
0$
#345000
b1010 !
b1010 "
1A
1>
0(
1C
13
1#
#350000
b1110 !
b1110 "
b110 !
b110 "
1<
0A
1;
0>
1(
1@
1?
0C
03
0#
1B
12
1$
#355000
b1110 !
b1110 "
1A
1>
0(
1C
13
1#
#360000
b1111 !
b1111 "
b1101 !
b1101 "
b1001 !
b1001 "
b1 !
b1 "
14
08
0<
0A
15
07
0;
0>
1(
0:
0@
0?
19
0C
10
03
1&
0#
0=
0B
01
02
0%
0$
#365000
b1001 !
b1001 "
1A
1>
0(
1C
13
1#
#370000
b1101 !
b1101 "
b101 !
b101 "
1<
0A
1;
0>
1(
1?
0C
03
0#
1B
12
1$
#375000
b1101 !
b1101 "
1A
1>
0(
1C
13
1#
#380000
b1111 !
b1111 "
b1011 !
b1011 "
b11 !
b11 "
18
0<
0A
17
0;
0>
1(
1:
0?
0C
03
0#
1=
0B
11
02
1%
0$
#385000
b1011 !
b1011 "
1A
1>
0(
1C
13
1#
#390000
b1111 !
b1111 "
b111 !
b111 "
1<
0A
1;
0>
1(
1@
1?
0C
03
0#
1B
12
1$
#395000
b1111 !
b1111 "
1A
1>
0(
1C
13
1#
#400000
b1110 !
b1110 "
b1100 !
b1100 "
b1000 !
b1000 "
b0 !
b0 "
04
08
0<
0A
05
07
0;
0>
1(
0:
0@
0?
09
0C
00
03
0&
0#
0=
0B
01
02
0%
0$
#405000
b1000 !
b1000 "
1A
1>
0(
1C
13
1#
#410000
b1100 !
b1100 "
b100 !
b100 "
1<
0A
1;
0>
1(
1?
0C
03
0#
1B
12
1$
#415000
b1100 !
b1100 "
1A
1>
0(
1C
13
1#
#420000
b1110 !
b1110 "
b1010 !
b1010 "
b10 !
b10 "
18
0<
0A
17
0;
0>
1(
1:
0?
0C
03
0#
1=
0B
11
02
1%
0$
#425000
b1010 !
b1010 "
1A
1>
0(
1C
13
1#
#430000
b1110 !
b1110 "
b110 !
b110 "
1<
0A
1;
0>
1(
1@
1?
0C
03
0#
1B
12
1$
#435000
b1110 !
b1110 "
1A
1>
0(
1C
13
1#
#440000
b1111 !
b1111 "
b1101 !
b1101 "
b1001 !
b1001 "
b1 !
b1 "
14
08
0<
0A
15
07
0;
0>
1(
0:
0@
0?
19
0C
10
03
1&
0#
0=
0B
01
02
0%
0$
#445000
b1001 !
b1001 "
1A
1>
0(
1C
13
1#
#450000
b1101 !
b1101 "
b101 !
b101 "
1<
0A
1;
0>
1(
1?
0C
03
0#
1B
12
1$
#455000
b1101 !
b1101 "
1A
1>
0(
1C
13
1#
#460000
b1111 !
b1111 "
b1011 !
b1011 "
b11 !
b11 "
18
0<
0A
17
0;
0>
1(
1:
0?
0C
03
0#
1=
0B
11
02
1%
0$
#465000
b1011 !
b1011 "
1A
1>
0(
1C
13
1#
#470000
b1111 !
b1111 "
b111 !
b111 "
1<
0A
1;
0>
1(
1@
1?
0C
03
0#
1B
12
1$
#475000
b1111 !
b1111 "
1A
1>
0(
1C
13
1#
#480000
b1110 !
b1110 "
b1100 !
b1100 "
b1000 !
b1000 "
b0 !
b0 "
04
08
0<
0A
05
07
0;
0>
1(
0:
0@
0?
09
0C
00
03
0&
0#
0=
0B
01
02
0%
0$
#485000
b1000 !
b1000 "
1A
1>
0(
1C
13
1#
#490000
b1100 !
b1100 "
b100 !
b100 "
1<
0A
1;
0>
1(
1?
0C
03
0#
1B
12
1$
#495000
b1100 !
b1100 "
1A
1>
0(
1C
13
1#
#500000
b1110 !
b1110 "
b1010 !
b1010 "
b10 !
b10 "
18
0<
0A
17
0;
0>
1(
1:
0?
0C
03
0#
1=
0B
11
02
1%
0$
#505000
b1010 !
b1010 "
1A
1>
0(
1C
13
1#
#510000
b1110 !
b1110 "
b110 !
b110 "
1<
0A
1;
0>
1(
1@
1?
0C
03
0#
1B
12
1$
#515000
b1110 !
b1110 "
1A
1>
0(
1C
13
1#
#520000
b1111 !
b1111 "
b1101 !
b1101 "
b1001 !
b1001 "
b1 !
b1 "
14
08
0<
0A
15
07
0;
0>
1(
0:
0@
0?
19
0C
10
03
1&
0#
0=
0B
01
02
0%
0$
#525000
b1001 !
b1001 "
1A
1>
0(
1C
13
1#
#530000
b1101 !
b1101 "
b101 !
b101 "
1<
0A
1;
0>
1(
1?
0C
03
0#
1B
12
1$
#535000
b1101 !
b1101 "
1A
1>
0(
1C
13
1#
#540000
b1111 !
b1111 "
b1011 !
b1011 "
b11 !
b11 "
18
0<
0A
17
0;
0>
1(
1:
0?
0C
03
0#
1=
0B
11
02
1%
0$
#545000
b1011 !
b1011 "
1A
1>
0(
1C
13
1#
#550000
b1111 !
b1111 "
b111 !
b111 "
1<
0A
1;
0>
1(
1@
1?
0C
03
0#
1B
12
1$
#555000
b1111 !
b1111 "
1A
1>
0(
1C
13
1#
#560000
b1110 !
b1110 "
b1100 !
b1100 "
b1000 !
b1000 "
b0 !
b0 "
04
08
0<
0A
05
07
0;
0>
1(
0:
0@
0?
09
0C
00
03
0&
0#
0=
0B
01
02
0%
0$
#565000
b1000 !
b1000 "
1A
1>
0(
1C
13
1#
#570000
b1100 !
b1100 "
b100 !
b100 "
1<
0A
1;
0>
1(
1?
0C
03
0#
1B
12
1$
#575000
b1100 !
b1100 "
1A
1>
0(
1C
13
1#
#580000
b1110 !
b1110 "
b1010 !
b1010 "
b10 !
b10 "
18
0<
0A
17
0;
0>
1(
1:
0?
0C
03
0#
1=
0B
11
02
1%
0$
#585000
b1010 !
b1010 "
1A
1>
0(
1C
13
1#
#590000
b1110 !
b1110 "
b110 !
b110 "
1<
0A
1;
0>
1(
1@
1?
0C
03
0#
1B
12
1$
#595000
b1110 !
b1110 "
1A
1>
0(
1C
13
1#
#600000
b1111 !
b1111 "
b1101 !
b1101 "
b1001 !
b1001 "
b1 !
b1 "
14
08
0<
0A
15
07
0;
0>
1(
0:
0@
0?
19
0C
10
03
1&
0#
0=
0B
01
02
0%
0$
#605000
b1001 !
b1001 "
1A
1>
0(
1C
13
1#
#610000
b1101 !
b1101 "
b101 !
b101 "
1<
0A
1;
0>
1(
1?
0C
03
0#
1B
12
1$
#615000
b1101 !
b1101 "
1A
1>
0(
1C
13
1#
#620000
b1111 !
b1111 "
b1011 !
b1011 "
b11 !
b11 "
18
0<
0A
17
0;
0>
1(
1:
0?
0C
03
0#
1=
0B
11
02
1%
0$
#625000
b1011 !
b1011 "
1A
1>
0(
1C
13
1#
#630000
b1111 !
b1111 "
b111 !
b111 "
1<
0A
1;
0>
1(
1@
1?
0C
03
0#
1B
12
1$
#635000
b1111 !
b1111 "
1A
1>
0(
1C
13
1#
#640000
b1110 !
b1110 "
b1100 !
b1100 "
b1000 !
b1000 "
b0 !
b0 "
04
08
0<
0A
05
07
0;
0>
1(
0:
0@
0?
09
0C
00
03
0&
0#
0=
0B
01
02
0%
0$
#645000
b1000 !
b1000 "
1A
1>
0(
1C
13
1#
#650000
b1100 !
b1100 "
b100 !
b100 "
1<
0A
1;
0>
1(
1?
0C
03
0#
1B
12
1$
#655000
b1100 !
b1100 "
1A
1>
0(
1C
13
1#
#660000
b1110 !
b1110 "
b1010 !
b1010 "
b10 !
b10 "
18
0<
0A
17
0;
0>
1(
1:
0?
0C
03
0#
1=
0B
11
02
1%
0$
#665000
b1010 !
b1010 "
1A
1>
0(
1C
13
1#
#670000
b1110 !
b1110 "
b110 !
b110 "
1<
0A
1;
0>
1(
1@
1?
0C
03
0#
1B
12
1$
#675000
b1110 !
b1110 "
1A
1>
0(
1C
13
1#
#680000
b1111 !
b1111 "
b1101 !
b1101 "
b1001 !
b1001 "
b1 !
b1 "
14
08
0<
0A
15
07
0;
0>
1(
0:
0@
0?
19
0C
10
03
1&
0#
0=
0B
01
02
0%
0$
#685000
b1001 !
b1001 "
1A
1>
0(
1C
13
1#
#690000
b1101 !
b1101 "
b101 !
b101 "
1<
0A
1;
0>
1(
1?
0C
03
0#
1B
12
1$
#695000
b1101 !
b1101 "
1A
1>
0(
1C
13
1#
#700000
b1111 !
b1111 "
b1011 !
b1011 "
b11 !
b11 "
18
0<
0A
17
0;
0>
1(
1:
0?
0C
03
0#
1=
0B
11
02
1%
0$
#705000
b1011 !
b1011 "
1A
1>
0(
1C
13
1#
#710000
b1111 !
b1111 "
b111 !
b111 "
1<
0A
1;
0>
1(
1@
1?
0C
03
0#
1B
12
1$
#715000
b1111 !
b1111 "
1A
1>
0(
1C
13
1#
#720000
b1110 !
b1110 "
b1100 !
b1100 "
b1000 !
b1000 "
b0 !
b0 "
04
08
0<
0A
05
07
0;
0>
1(
0:
0@
0?
09
0C
00
03
0&
0#
0=
0B
01
02
0%
0$
#725000
b1000 !
b1000 "
1A
1>
0(
1C
13
1#
#730000
b1100 !
b1100 "
b100 !
b100 "
1<
0A
1;
0>
1(
1?
0C
03
0#
1B
12
1$
#735000
b1100 !
b1100 "
1A
1>
0(
1C
13
1#
#740000
b1110 !
b1110 "
b1010 !
b1010 "
b10 !
b10 "
18
0<
0A
17
0;
0>
1(
1:
0?
0C
03
0#
1=
0B
11
02
1%
0$
#745000
b1010 !
b1010 "
1A
1>
0(
1C
13
1#
#750000
b1110 !
b1110 "
b110 !
b110 "
1<
0A
1;
0>
1(
1@
1?
0C
03
0#
1B
12
1$
#755000
b1110 !
b1110 "
1A
1>
0(
1C
13
1#
#760000
b1111 !
b1111 "
b1101 !
b1101 "
b1001 !
b1001 "
b1 !
b1 "
14
08
0<
0A
15
07
0;
0>
1(
0:
0@
0?
19
0C
10
03
1&
0#
0=
0B
01
02
0%
0$
#765000
b1001 !
b1001 "
1A
1>
0(
1C
13
1#
#770000
b1101 !
b1101 "
b101 !
b101 "
1<
0A
1;
0>
1(
1?
0C
03
0#
1B
12
1$
#775000
b1101 !
b1101 "
1A
1>
0(
1C
13
1#
#780000
b1111 !
b1111 "
b1011 !
b1011 "
b11 !
b11 "
18
0<
0A
17
0;
0>
1(
1:
0?
0C
03
0#
1=
0B
11
02
1%
0$
#785000
b1011 !
b1011 "
1A
1>
0(
1C
13
1#
#790000
b1111 !
b1111 "
b111 !
b111 "
1<
0A
1;
0>
1(
1@
1?
0C
03
0#
1B
12
1$
#795000
b1111 !
b1111 "
1A
1>
0(
1C
13
1#
#800000
b1110 !
b1110 "
b1100 !
b1100 "
b1000 !
b1000 "
b0 !
b0 "
04
08
0<
0A
05
07
0;
0>
1(
0:
0@
0?
09
0C
00
03
0&
0#
0=
0B
01
02
0%
0$
#805000
b1000 !
b1000 "
1A
1>
0(
1C
13
1#
#810000
b1100 !
b1100 "
b100 !
b100 "
1<
0A
1;
0>
1(
1?
0C
03
0#
1B
12
1$
#815000
b1100 !
b1100 "
1A
1>
0(
1C
13
1#
#820000
b1110 !
b1110 "
b1010 !
b1010 "
b10 !
b10 "
18
0<
0A
17
0;
0>
1(
1:
0?
0C
03
0#
1=
0B
11
02
1%
0$
#825000
b1010 !
b1010 "
1A
1>
0(
1C
13
1#
#830000
b1110 !
b1110 "
b110 !
b110 "
1<
0A
1;
0>
1(
1@
1?
0C
03
0#
1B
12
1$
#835000
b1110 !
b1110 "
1A
1>
0(
1C
13
1#
#840000
b1111 !
b1111 "
b1101 !
b1101 "
b1001 !
b1001 "
b1 !
b1 "
14
08
0<
0A
15
07
0;
0>
1(
0:
0@
0?
19
0C
10
03
1&
0#
0=
0B
01
02
0%
0$
#845000
b1001 !
b1001 "
1A
1>
0(
1C
13
1#
#850000
b1101 !
b1101 "
b101 !
b101 "
1<
0A
1;
0>
1(
1?
0C
03
0#
1B
12
1$
#855000
b1101 !
b1101 "
1A
1>
0(
1C
13
1#
#860000
b1111 !
b1111 "
b1011 !
b1011 "
b11 !
b11 "
18
0<
0A
17
0;
0>
1(
1:
0?
0C
03
0#
1=
0B
11
02
1%
0$
#865000
b1011 !
b1011 "
1A
1>
0(
1C
13
1#
#870000
b1111 !
b1111 "
b111 !
b111 "
1<
0A
1;
0>
1(
1@
1?
0C
03
0#
1B
12
1$
#875000
b1111 !
b1111 "
1A
1>
0(
1C
13
1#
#880000
b1110 !
b1110 "
b1100 !
b1100 "
b1000 !
b1000 "
b0 !
b0 "
04
08
0<
0A
05
07
0;
0>
1(
0:
0@
0?
09
0C
00
03
0&
0#
0=
0B
01
02
0%
0$
#885000
b1000 !
b1000 "
1A
1>
0(
1C
13
1#
#890000
b1100 !
b1100 "
b100 !
b100 "
1<
0A
1;
0>
1(
1?
0C
03
0#
1B
12
1$
#895000
b1100 !
b1100 "
1A
1>
0(
1C
13
1#
#900000
b1110 !
b1110 "
b1010 !
b1010 "
b10 !
b10 "
18
0<
0A
17
0;
0>
1(
1:
0?
0C
03
0#
1=
0B
11
02
1%
0$
#905000
b1010 !
b1010 "
1A
1>
0(
1C
13
1#
#910000
b1110 !
b1110 "
b110 !
b110 "
1<
0A
1;
0>
1(
1@
1?
0C
03
0#
1B
12
1$
#915000
b1110 !
b1110 "
1A
1>
0(
1C
13
1#
#920000
b1111 !
b1111 "
b1101 !
b1101 "
b1001 !
b1001 "
b1 !
b1 "
14
08
0<
0A
15
07
0;
0>
1(
0:
0@
0?
19
0C
10
03
1&
0#
0=
0B
01
02
0%
0$
#925000
b1001 !
b1001 "
1A
1>
0(
1C
13
1#
#930000
b1101 !
b1101 "
b101 !
b101 "
1<
0A
1;
0>
1(
1?
0C
03
0#
1B
12
1$
#935000
b1101 !
b1101 "
1A
1>
0(
1C
13
1#
#940000
b1111 !
b1111 "
b1011 !
b1011 "
b11 !
b11 "
18
0<
0A
17
0;
0>
1(
1:
0?
0C
03
0#
1=
0B
11
02
1%
0$
#945000
b1011 !
b1011 "
1A
1>
0(
1C
13
1#
#950000
b1111 !
b1111 "
b111 !
b111 "
1<
0A
1;
0>
1(
1@
1?
0C
03
0#
1B
12
1$
#955000
b1111 !
b1111 "
1A
1>
0(
1C
13
1#
#960000
b1110 !
b1110 "
b1100 !
b1100 "
b1000 !
b1000 "
b0 !
b0 "
04
08
0<
0A
05
07
0;
0>
1(
0:
0@
0?
09
0C
00
03
0&
0#
0=
0B
01
02
0%
0$
#965000
b1000 !
b1000 "
1A
1>
0(
1C
13
1#
#970000
b1100 !
b1100 "
b100 !
b100 "
1<
0A
1;
0>
1(
1?
0C
03
0#
1B
12
1$
#975000
b1100 !
b1100 "
1A
1>
0(
1C
13
1#
#980000
b1110 !
b1110 "
b1010 !
b1010 "
b10 !
b10 "
18
0<
0A
17
0;
0>
1(
1:
0?
0C
03
0#
1=
0B
11
02
1%
0$
#985000
b1010 !
b1010 "
1A
1>
0(
1C
13
1#
#990000
b1110 !
b1110 "
b110 !
b110 "
1<
0A
1;
0>
1(
1@
1?
0C
03
0#
1B
12
1$
#995000
b1110 !
b1110 "
1A
1>
0(
1C
13
1#
