exercicios e exemplos aula 10/ex18 02/simulation/qsim/ff_jk_3bits.msim.vcd
$comment
	File created using the following command:
		vcd file ff_jk_3bits.msim.vcd -direction
$end
$date
	Sat Apr 29 17:16:07 2023
$end
$version
	ModelSim Version 10.1d
$end
$timescale
	1ps
$end
$scope module ff_jk_3bits_vlg_vec_tst $end
$var reg 1 ! clk $end
$var wire 1 " q_not [2] $end
$var wire 1 # q_not [1] $end
$var wire 1 $ q_not [0] $end
$var wire 1 % q_out [2] $end
$var wire 1 & q_out [1] $end
$var wire 1 ' q_out [0] $end
$var wire 1 ( sampler $end
$scope module i1 $end
$var wire 1 ) gnd $end
$var wire 1 * vcc $end
$var wire 1 + unknown $end
$var tri1 1 , devclrn $end
$var tri1 1 - devpor $end
$var tri1 1 . devoe $end
$var wire 1 / q_out[0]~output_o $end
$var wire 1 0 q_out[1]~output_o $end
$var wire 1 1 q_out[2]~output_o $end
$var wire 1 2 q_not[0]~output_o $end
$var wire 1 3 q_not[1]~output_o $end
$var wire 1 4 q_not[2]~output_o $end
$var wire 1 5 clk~input_o $end
$var wire 1 6 clk~inputclkctrl_outclk $end
$var wire 1 7 q_temp[0]~2_combout $end
$var wire 1 8 q_temp[1]~0_combout $end
$var wire 1 9 q_temp[2]~1_combout $end
$var wire 1 : q_temp [2] $end
$var wire 1 ; q_temp [1] $end
$var wire 1 < q_temp [0] $end
$upscope $end
$upscope $end
$enddefinitions $end
#0
$dumpvars
0!
1$
1#
1"
0'
0&
0%
x(
0)
1*
x+
1,
1-
1.
0/
00
01
12
13
14
05
06
17
08
09
0<
0;
0:
$end
#25000
1!
15
16
0(
1<
18
07
1/
02
1'
0$
#50000
0!
05
06
1(
#75000
1!
15
16
0(
1;
0<
17
10
0/
03
12
1&
0'
0#
1$
#100000
0!
05
06
1(
#125000
1!
15
16
0(
1<
19
08
07
1/
02
1'
0$
#150000
0!
05
06
1(
#175000
1!
15
16
0(
1:
0;
0<
17
11
00
0/
04
13
12
1%
0&
0'
0"
1#
1$
#200000
0!
05
06
1(
#225000
1!
15
16
0(
1<
18
07
1/
02
1'
0$
#250000
0!
05
06
1(
#275000
1!
15
16
0(
1;
0<
17
10
0/
03
12
1&
0'
0#
1$
#300000
0!
05
06
1(
#325000
1!
15
16
0(
1<
09
08
07
1/
02
1'
0$
#350000
0!
05
06
1(
#375000
1!
15
16
0(
0:
0;
0<
17
01
00
0/
14
13
12
0%
0&
0'
1"
1#
1$
#400000
0!
05
06
1(
#425000
1!
15
16
0(
1<
18
07
1/
02
1'
0$
#450000
0!
05
06
1(
#475000
1!
15
16
0(
1;
0<
17
10
0/
03
12
1&
0'
0#
1$
#500000
0!
05
06
1(
#525000
1!
15
16
0(
1<
19
08
07
1/
02
1'
0$
#550000
0!
05
06
1(
#575000
1!
15
16
0(
1:
0;
0<
17
11
00
0/
04
13
12
1%
0&
0'
0"
1#
1$
#600000
0!
05
06
1(
#625000
1!
15
16
0(
1<
18
07
1/
02
1'
0$
#650000
0!
05
06
1(
#675000
1!
15
16
0(
1;
0<
17
10
0/
03
12
1&
0'
0#
1$
#700000
0!
05
06
1(
#725000
1!
15
16
0(
1<
09
08
07
1/
02
1'
0$
#750000
0!
05
06
1(
#775000
1!
15
16
0(
0:
0;
0<
17
01
00
0/
14
13
12
0%
0&
0'
1"
1#
1$
#800000
0!
05
06
1(
#825000
1!
15
16
0(
1<
18
07
1/
02
1'
0$
#850000
0!
05
06
1(
#875000
1!
15
16
0(
1;
0<
17
10
0/
03
12
1&
0'
0#
1$
#900000
0!
05
06
1(
#925000
1!
15
16
0(
1<
19
08
07
1/
02
1'
0$
#950000
0!
05
06
1(
#975000
1!
15
16
0(
1:
0;
0<
17
11
00
0/
04
13
12
1%
0&
0'
0"
1#
1$
