aula pratica 14-04-2023 TD/exemplo 16 aula 9/simulation/qsim/aula9_exemplo16.msim.vcd
$comment
	File created using the following command:
		vcd file aula9_exemplo16.msim.vcd -direction
$end
$date
	Fri Apr 21 16:26:33 2023
$end
$version
	ModelSim Version 10.1d
$end
$timescale
	1ps
$end
$scope module aula9_exemplo16_vlg_vec_tst $end
$var reg 1 ! carga $end
$var reg 1 " clock16 $end
$var reg 4 # d [3:0] $end
$var reg 1 $ limpa $end
$var wire 1 % q [3] $end
$var wire 1 & q [2] $end
$var wire 1 ' q [1] $end
$var wire 1 ( q [0] $end
$var wire 1 ) sampler $end
$scope module i1 $end
$var wire 1 * gnd $end
$var wire 1 + vcc $end
$var wire 1 , unknown $end
$var tri1 1 - devclrn $end
$var tri1 1 . devpor $end
$var tri1 1 / devoe $end
$var wire 1 0 q[0]~output_o $end
$var wire 1 1 q[1]~output_o $end
$var wire 1 2 q[2]~output_o $end
$var wire 1 3 q[3]~output_o $end
$var wire 1 4 clock16~input_o $end
$var wire 1 5 clock16~inputclkctrl_outclk $end
$var wire 1 6 d[0]~input_o $end
$var wire 1 7 ex01|q_temp~feeder_combout $end
$var wire 1 8 limpa~input_o $end
$var wire 1 9 limpa~inputclkctrl_outclk $end
$var wire 1 : carga~input_o $end
$var wire 1 ; ex01|q_temp~q $end
$var wire 1 < d[1]~input_o $end
$var wire 1 = ex02|q_temp~q $end
$var wire 1 > d[2]~input_o $end
$var wire 1 ? ex03|q_temp~q $end
$var wire 1 @ d[3]~input_o $end
$var wire 1 A ex04|q_temp~feeder_combout $end
$var wire 1 B ex04|q_temp~q $end
$upscope $end
$upscope $end
$enddefinitions $end
#0
$dumpvars
0!
0"
b0 #
0$
0(
0'
0&
0%
x)
0*
1+
x,
1-
1.
1/
00
01
02
03
04
05
06
07
08
09
0:
0;
0<
0=
0>
0?
0@
0A
0B
$end
#10000
1!
b1 #
1:
16
0)
17
#20000
b11 #
0!
b10 #
06
1<
0:
1)
07
#25000
1"
14
15
0)
#30000
1!
b11 #
1:
16
1)
17
#40000
b111 #
b101 #
0!
b100 #
06
0<
1>
0:
0)
07
#50000
0"
1!
b101 #
04
1:
16
05
1)
17
#60000
b111 #
0!
b110 #
06
1<
0:
0)
07
#70000
1!
b111 #
1:
16
1)
17
#75000
1"
14
15
0)
1?
1=
1;
12
11
10
1&
1'
1(
#80000
b1111 #
b1011 #
b1001 #
0!
b1000 #
06
0<
0>
1@
0:
1)
07
1A
#90000
1!
b1001 #
1:
16
0)
17
#100000
0"
b1011 #
0!
b1010 #
04
06
1<
0:
05
1)
07
#110000
1!
b1011 #
1:
16
0)
17
#120000
b1111 #
b1101 #
0!
b1100 #
06
0<
1>
0:
1)
07
#125000
1"
14
15
0)
#130000
1!
b1101 #
1:
16
1)
17
#140000
b1111 #
0!
b1110 #
06
1<
0:
0)
07
#150000
0"
1!
b1111 #
04
1:
16
05
1)
17
#160000
b111 #
b11 #
b1 #
0!
b0 #
06
0<
0>
0@
0:
0)
07
0A
#170000
1!
b1 #
1:
16
1)
17
#175000
1"
14
15
0)
0?
0=
02
01
0&
0'
#180000
b11 #
0!
b10 #
06
1<
0:
1)
07
#190000
1!
b11 #
1:
16
0)
17
#200000
b111 #
0"
b101 #
0!
b100 #
06
0<
1>
04
0:
05
1)
07
#210000
1!
b101 #
1:
16
0)
17
#220000
b111 #
0!
b110 #
06
1<
0:
1)
07
#225000
1"
14
15
0)
#230000
1!
b111 #
1:
16
1)
17
#240000
b1111 #
b1011 #
b1001 #
0!
b1000 #
06
0<
0>
1@
0:
0)
07
1A
#250000
0"
1!
b1001 #
04
1:
16
05
1)
17
#260000
b1011 #
0!
b1010 #
06
1<
0:
0)
07
#270000
1!
b1011 #
1:
16
1)
17
#275000
1"
14
15
0)
1B
1=
13
11
1%
1'
#280000
b1111 #
b1101 #
0!
b1100 #
06
0<
1>
0:
1)
07
#290000
1!
b1101 #
1:
16
0)
17
#300000
0"
b1111 #
0!
b1110 #
04
06
1<
0:
05
1)
07
#310000
1!
b1111 #
1:
16
0)
17
#320000
b111 #
b11 #
b1 #
0!
b0 #
06
0<
0>
0@
0:
1)
07
0A
#325000
1"
14
15
0)
#330000
1!
b1 #
1:
16
1)
17
#340000
b11 #
0!
b10 #
06
1<
0:
0)
07
#350000
0"
1!
b11 #
04
1:
16
05
1)
17
#360000
b111 #
b101 #
0!
b100 #
06
0<
1>
0:
0)
07
#370000
1!
b101 #
1:
16
1)
17
#375000
1"
14
15
0)
0B
1?
0=
03
12
01
0%
1&
0'
#380000
b111 #
0!
b110 #
06
1<
0:
1)
07
#390000
1!
b111 #
1:
16
0)
17
#400000
b1111 #
b1011 #
0"
b1001 #
0!
b1000 #
06
0<
0>
1@
04
0:
05
1)
07
1A
#410000
1!
b1001 #
1:
16
0)
17
#420000
b1011 #
0!
b1010 #
06
1<
0:
1)
07
#425000
1"
14
15
0)
#430000
1!
b1011 #
1:
16
1)
17
#440000
b1111 #
b1101 #
0!
b1100 #
06
0<
1>
0:
0)
07
#450000
0"
1!
b1101 #
04
1:
16
05
1)
17
#460000
b1111 #
0!
b1110 #
06
1<
0:
0)
07
#470000
1!
b1111 #
1:
16
1)
17
#475000
1"
14
15
0)
1B
1=
13
11
1%
1'
#480000
b111 #
b11 #
b1 #
0!
b0 #
06
0<
0>
0@
0:
1)
07
0A
#490000
1!
b1 #
1:
16
0)
17
#500000
0"
b11 #
0!
b10 #
04
06
1<
0:
05
1)
07
#510000
1!
b11 #
1:
16
0)
17
#520000
b111 #
b101 #
0!
b100 #
06
0<
1>
0:
1)
07
#525000
1"
14
15
0)
#530000
1!
b101 #
1:
16
1)
17
#540000
b111 #
0!
b110 #
06
1<
0:
0)
07
#550000
0"
1!
b111 #
04
1:
16
05
1)
17
#560000
b1111 #
b1011 #
b1001 #
0!
b1000 #
06
0<
0>
1@
0:
0)
07
1A
#570000
1!
b1001 #
1:
16
1)
17
#575000
1"
14
15
0)
0?
0=
02
01
0&
0'
#580000
b1011 #
0!
b1010 #
06
1<
0:
1)
07
#590000
1!
b1011 #
1:
16
0)
17
#600000
b1111 #
0"
b1101 #
0!
b1100 #
06
0<
1>
04
0:
05
1)
07
#610000
1!
b1101 #
1:
16
0)
17
#620000
b1111 #
0!
b1110 #
06
1<
0:
1)
07
#625000
1"
14
15
0)
#630000
1!
b1111 #
1:
16
1)
17
#640000
b111 #
b11 #
b1 #
0!
b0 #
06
0<
0>
0@
0:
0)
07
0A
#650000
0"
1!
b1 #
04
1:
16
05
1)
17
#660000
b11 #
0!
b10 #
06
1<
0:
0)
07
#670000
1!
b11 #
1:
16
1)
17
#675000
1"
14
15
0)
0B
1=
03
11
0%
1'
#680000
b111 #
b101 #
0!
b100 #
06
0<
1>
0:
1)
07
#690000
1!
b101 #
1:
16
0)
17
#700000
0"
b111 #
0!
b110 #
04
06
1<
0:
05
1)
07
#710000
1!
b111 #
1:
16
0)
17
#720000
b1111 #
b1011 #
b1001 #
0!
b1000 #
06
0<
0>
1@
0:
1)
07
1A
#725000
1"
14
15
0)
#730000
1!
b1001 #
1:
16
1)
17
#740000
b1011 #
0!
b1010 #
06
1<
0:
0)
07
#750000
0"
1!
b1011 #
04
1:
16
05
1)
17
#760000
b1111 #
b1101 #
0!
b1100 #
06
0<
1>
0:
0)
07
#770000
1!
b1101 #
1:
16
1)
17
#775000
1"
14
15
0)
1B
1?
0=
13
12
01
1%
1&
0'
#780000
b1111 #
0!
b1110 #
06
1<
0:
1)
07
#790000
1!
b1111 #
1:
16
0)
17
#800000
b111 #
b11 #
0"
b1 #
0!
b0 #
06
0<
0>
0@
04
0:
05
1)
07
0A
#810000
1!
b1 #
1:
16
0)
17
#820000
b11 #
0!
b10 #
06
1<
0:
1)
07
#825000
1"
14
15
0)
#830000
1!
b11 #
1:
16
1)
17
#840000
b111 #
b101 #
0!
b100 #
06
0<
1>
0:
0)
07
#850000
0"
1!
b101 #
04
1:
16
05
1)
17
#860000
b111 #
0!
b110 #
06
1<
0:
0)
07
#870000
1!
b111 #
1:
16
1)
17
#875000
1"
14
15
0)
0B
1=
03
11
0%
1'
#880000
b1111 #
b1011 #
b1001 #
0!
b1000 #
06
0<
0>
1@
0:
1)
07
1A
#890000
1!
b1001 #
1:
16
0)
17
#900000
0"
b1011 #
0!
b1010 #
04
06
1<
0:
05
1)
07
#910000
1!
b1011 #
1:
16
0)
17
#920000
b1111 #
b1101 #
0!
b1100 #
06
0<
1>
0:
1)
07
#925000
1"
14
15
0)
#930000
1!
b1101 #
1:
16
1)
17
#940000
b1111 #
0!
b1110 #
06
1<
0:
0)
07
#950000
0"
1!
b1111 #
04
1:
16
05
1)
17
#960000
b111 #
b11 #
b1 #
0!
b0 #
06
0<
0>
0@
0:
0)
07
0A
#970000
1!
b1 #
1:
16
1)
17
#975000
1"
14
15
0)
0?
0=
02
01
0&
0'
#980000
b11 #
0!
b10 #
06
1<
0:
1)
07
#990000
1!
b11 #
1:
16
0)
17
