exercicios e exemplos aula 5 e 6  TD/exemplo3/simulation/qsim/exemplo3.msim.vcd
$comment
	File created using the following command:
		vcd file exemplo3.msim.vcd -direction
$end
$date
	Sat Mar 04 12:59:28 2023
$end
$version
	ModelSim Version 10.1d
$end
$timescale
	1ps
$end
$scope module exemplo3_vlg_vec_tst $end
$var reg 1 ! a $end
$var reg 1 " b $end
$var reg 1 # c $end
$var wire 1 $ s $end
$var wire 1 % sampler $end
$scope module i1 $end
$var wire 1 & gnd $end
$var wire 1 ' vcc $end
$var wire 1 ( unknown $end
$var tri1 1 ) devclrn $end
$var tri1 1 * devpor $end
$var tri1 1 + devoe $end
$var wire 1 , s~output_o $end
$var wire 1 - c~input_o $end
$var wire 1 . b~input_o $end
$var wire 1 / a~input_o $end
$var wire 1 0 s~0_combout $end
$upscope $end
$upscope $end
$enddefinitions $end
#0
$dumpvars
0!
0"
0#
1$
x%
0&
1'
x(
1)
1*
1+
1,
0-
0.
0/
10
$end
#12500
1#
1-
0%
#25000
1"
0#
1.
0-
1%
#37500
1#
1-
0%
#50000
1!
0"
0#
1/
0.
0-
1%
#62500
1#
1-
0%
#75000
1"
0#
1.
0-
1%
00
0,
0$
#87500
1#
1-
0%
10
1,
1$
#100000
0!
0"
0#
0/
0.
0-
1%
#112500
1#
1-
0%
#125000
1"
0#
1.
0-
1%
#137500
1#
1-
0%
#150000
1!
0"
0#
1/
0.
0-
1%
#162500
1#
1-
0%
#175000
1"
0#
1.
0-
1%
00
0,
0$
#187500
1#
1-
0%
10
1,
1$
#200000
0!
0"
0#
0/
0.
0-
1%
#212500
1#
1-
0%
#225000
1"
0#
1.
0-
1%
#237500
1#
1-
0%
#250000
1!
0"
0#
1/
0.
0-
1%
#262500
1#
1-
0%
#275000
1"
0#
1.
0-
1%
00
0,
0$
#287500
1#
1-
0%
10
1,
1$
#300000
0!
0"
0#
0/
0.
0-
1%
#312500
1#
1-
0%
#325000
1"
0#
1.
0-
1%
#337500
1#
1-
0%
#350000
1!
0"
0#
1/
0.
0-
1%
#362500
1#
1-
0%
#375000
1"
0#
1.
0-
1%
00
0,
0$
#387500
1#
1-
0%
10
1,
1$
#400000
0!
0"
0#
0/
0.
0-
1%
#412500
1#
1-
0%
#425000
1"
0#
1.
0-
1%
#437500
1#
1-
0%
#450000
1!
0"
0#
1/
0.
0-
1%
#462500
1#
1-
0%
#475000
1"
0#
1.
0-
1%
00
0,
0$
#487500
1#
1-
0%
10
1,
1$
#500000
0!
0"
0#
0/
0.
0-
1%
#512500
1#
1-
0%
#525000
1"
0#
1.
0-
1%
#537500
1#
1-
0%
#550000
1!
0"
0#
1/
0.
0-
1%
#562500
1#
1-
0%
#575000
1"
0#
1.
0-
1%
00
0,
0$
#587500
1#
1-
0%
10
1,
1$
#600000
0!
0"
0#
0/
0.
0-
1%
#612500
1#
1-
0%
#625000
1"
0#
1.
0-
1%
#637500
1#
1-
0%
#650000
1!
0"
0#
1/
0.
0-
1%
#662500
1#
1-
0%
#675000
1"
0#
1.
0-
1%
00
0,
0$
#687500
1#
1-
0%
10
1,
1$
#700000
0!
0"
0#
0/
0.
0-
1%
#712500
1#
1-
0%
#725000
1"
0#
1.
0-
1%
#737500
1#
1-
0%
#750000
1!
0"
0#
1/
0.
0-
1%
#762500
1#
1-
0%
#775000
1"
0#
1.
0-
1%
00
0,
0$
#787500
1#
1-
0%
10
1,
1$
#800000
0!
0"
0#
0/
0.
0-
1%
#812500
1#
1-
0%
#825000
1"
0#
1.
0-
1%
#837500
1#
1-
0%
#850000
1!
0"
0#
1/
0.
0-
1%
#862500
1#
1-
0%
#875000
1"
0#
1.
0-
1%
00
0,
0$
#887500
1#
1-
0%
10
1,
1$
#900000
0!
0"
0#
0/
0.
0-
1%
#912500
1#
1-
0%
#925000
1"
0#
1.
0-
1%
#937500
1#
1-
0%
#950000
1!
0"
0#
1/
0.
0-
1%
#962500
1#
1-
0%
#975000
1"
0#
1.
0-
1%
00
0,
0$
#987500
1#
1-
0%
10
1,
1$
