trabalho 2 td/teste/simulation/qsim/teste.msim.vcd
$comment
	File created using the following command:
		vcd file teste.msim.vcd -direction
$end
$date
	Fri May 05 17:51:32 2023
$end
$version
	ModelSim Version 10.1d
$end
$timescale
	1ps
$end
$scope module teste_vlg_vec_tst $end
$var reg 1 ! CLEAR $end
$var reg 1 " CLOCK $end
$var reg 1 # CRES_DECRES $end
$var reg 6 $ entrada_digite [5:0] $end
$var reg 1 % HOLD $end
$var reg 1 & LOAD $end
$var wire 1 ' MIN [5] $end
$var wire 1 ( MIN [4] $end
$var wire 1 ) MIN [3] $end
$var wire 1 * MIN [2] $end
$var wire 1 + MIN [1] $end
$var wire 1 , MIN [0] $end
$var wire 1 - SEGs [5] $end
$var wire 1 . SEGs [4] $end
$var wire 1 / SEGs [3] $end
$var wire 1 0 SEGs [2] $end
$var wire 1 1 SEGs [1] $end
$var wire 1 2 SEGs [0] $end
$var wire 1 3 sampler $end
$scope module i1 $end
$var wire 1 4 gnd $end
$var wire 1 5 vcc $end
$var wire 1 6 unknown $end
$var tri1 1 7 devclrn $end
$var tri1 1 8 devpor $end
$var tri1 1 9 devoe $end
$var wire 1 : processo01~0_combout $end
$var wire 1 ; Add0~0_combout $end
$var wire 1 < segundo~5_combout $end
$var wire 1 = segundo~8_combout $end
$var wire 1 > SEGs[0]~output_o $end
$var wire 1 ? SEGs[1]~output_o $end
$var wire 1 @ SEGs[2]~output_o $end
$var wire 1 A SEGs[3]~output_o $end
$var wire 1 B SEGs[4]~output_o $end
$var wire 1 C SEGs[5]~output_o $end
$var wire 1 D MIN[0]~output_o $end
$var wire 1 E MIN[1]~output_o $end
$var wire 1 F MIN[2]~output_o $end
$var wire 1 G MIN[3]~output_o $end
$var wire 1 H MIN[4]~output_o $end
$var wire 1 I MIN[5]~output_o $end
$var wire 1 J CLOCK~input_o $end
$var wire 1 K CLOCK~inputclkctrl_outclk $end
$var wire 1 L CRES_DECRES~input_o $end
$var wire 1 M LOAD~input_o $end
$var wire 1 N entrada_digite[5]~input_o $end
$var wire 1 O processo01:minuto[0]~3_combout $end
$var wire 1 P entrada_digite[0]~input_o $end
$var wire 1 Q CLEAR~input_o $end
$var wire 1 R CLEAR~inputclkctrl_outclk $end
$var wire 1 S processo01:minuto[3]~1_combout $end
$var wire 1 T entrada_digite[3]~input_o $end
$var wire 1 U processo01:minuto[3]~q $end
$var wire 1 V LessThan1~0_combout $end
$var wire 1 W segundo~2_combout $end
$var wire 1 X HOLD~input_o $end
$var wire 1 Y processo01:segundo[1]~q $end
$var wire 1 Z segundo~3_combout $end
$var wire 1 [ segundo~4_combout $end
$var wire 1 \ processo01:segundo[2]~q $end
$var wire 1 ] Add2~1_combout $end
$var wire 1 ^ processo01~4_combout $end
$var wire 1 _ processo01~5_combout $end
$var wire 1 ` processo01:segundo[1]~0_combout $end
$var wire 1 a segundo~9_combout $end
$var wire 1 b processo01:segundo[4]~q $end
$var wire 1 c segundo~6_combout $end
$var wire 1 d processo01:segundo[3]~q $end
$var wire 1 e processo01~2_combout $end
$var wire 1 f Add2~0_combout $end
$var wire 1 g processo01~3_combout $end
$var wire 1 h processo01:minuto[0]~9_combout $end
$var wire 1 i segundo~7_combout $end
$var wire 1 j segundo~10_combout $end
$var wire 1 k segundo~11_combout $end
$var wire 1 l segundo~12_combout $end
$var wire 1 m processo01:segundo[5]~q $end
$var wire 1 n processo01:minuto[0]~5_combout $end
$var wire 1 o processo01:minuto[0]~6_combout $end
$var wire 1 p processo01:minuto[0]~7_combout $end
$var wire 1 q processo01:minuto[0]~8_combout $end
$var wire 1 r processo01:minuto[0]~q $end
$var wire 1 s processo01:minuto[0]~4 $end
$var wire 1 t processo01:minuto[1]~1_combout $end
$var wire 1 u entrada_digite[1]~input_o $end
$var wire 1 v processo01:minuto[1]~q $end
$var wire 1 w processo01:minuto[1]~2 $end
$var wire 1 x processo01:minuto[2]~2 $end
$var wire 1 y processo01:minuto[3]~2 $end
$var wire 1 z processo01:minuto[4]~2 $end
$var wire 1 { processo01:minuto[5]~1_combout $end
$var wire 1 | processo01:minuto[5]~q $end
$var wire 1 } entrada_digite[4]~input_o $end
$var wire 1 ~ processo01:minuto[2]~1_combout $end
$var wire 1 !! entrada_digite[2]~input_o $end
$var wire 1 "! processo01:minuto[2]~q $end
$var wire 1 #! LessThan0~1_cout $end
$var wire 1 $! LessThan0~3_cout $end
$var wire 1 %! LessThan0~5_cout $end
$var wire 1 &! LessThan0~7_cout $end
$var wire 1 '! LessThan0~9_cout $end
$var wire 1 (! LessThan0~10_combout $end
$var wire 1 )! processo01~1_combout $end
$var wire 1 *! segundo~0_combout $end
$var wire 1 +! segundo~1_combout $end
$var wire 1 ,! processo01:segundo[0]~q $end
$var wire 1 -! processo01:minuto[4]~1_combout $end
$var wire 1 .! processo01:minuto[4]~q $end
$upscope $end
$upscope $end
$enddefinitions $end
#0
$dumpvars
0!
0"
0#
b100 $
0%
1&
0,
0+
0*
0)
0(
0'
02
01
00
0/
0.
0-
x3
04
15
x6
17
18
19
1:
0;
0<
0=
0>
0?
0@
0A
0B
0C
0D
0E
0F
0G
0H
0I
0J
0K
0L
1M
0N
1O
0P
0Q
0R
0S
0T
0U
0V
0W
0X
0Y
0Z
0[
0\
0]
0^
0_
1`
0a
0b
0c
0d
0e
0f
0g
1h
0i
0j
0k
0l
0m
0n
0o
1p
0q
0r
0s
0t
0u
0v
1w
0x
1y
0z
0{
0|
0}
0~
1!!
0"!
0#!
1$!
1%!
0&!
1'!
1(!
1)!
0*!
0+!
0,!
0-!
0.!
$end
#5000
1"
1J
1K
03
#10000
0"
0J
0K
13
#15000
1"
1J
1K
03
#20000
0"
0J
0K
13
#25000
1"
1J
1K
03
#30000
0"
0J
0K
13
#35000
1"
1J
1K
03
#40000
0"
0J
0K
13
#45000
1"
1J
1K
03
#50000
0"
0J
0K
13
#55000
1"
1J
1K
03
#60000
0&
0"
0M
0J
0K
13
1*!
0`
1+!
#65000
1"
1J
1K
03
1,!
0*!
1f
1e
1]
1W
1>
12
0+!
1g
#70000
0"
0J
0K
13
#75000
1"
1J
1K
03
0,!
1Y
1*!
0>
1?
02
11
1+!
#80000
0"
0J
0K
13
#85000
1"
1J
1K
03
1,!
0*!
0e
0W
1;
1>
12
0+!
0g
1Z
1[
#90000
0"
0J
0K
13
#95000
1"
1J
1K
03
0,!
1\
0Y
1*!
1n
0:
0>
1@
0?
02
10
01
1+!
1o
0)!
0p
0*!
1`
0Z
1q
0+!
0[
#100000
0"
0J
0K
13
#105000
1"
1J
1K
03
1r
0\
1V
1s
0O
0n
0f
0]
0;
1:
1D
0@
1,
00
1t
0o
1)!
1p
1*!
0`
0q
1+!
#110000
0"
0J
0K
13
#115000
1"
1J
1K
03
1,!
0*!
1f
1e
1]
1W
1>
12
0+!
1g
1^
1_
#120000
0"
0J
0K
13
#125000
1"
1J
1K
03
0,!
1Y
1*!
0_
0>
1?
02
11
1+!
#130000
0"
0J
0K
13
#135000
1"
1J
1K
03
1,!
0*!
0e
1_
0W
1;
1>
12
0+!
0g
1Z
0_
1[
#140000
0"
0J
0K
13
#145000
1"
1J
1K
03
0,!
1\
0Y
1*!
1n
0:
0>
1@
0?
02
10
01
1+!
1o
0)!
0p
0*!
1`
0Z
1q
0+!
0[
#150000
0"
0J
0K
13
#155000
1"
1J
1K
03
1v
0r
0\
0w
0t
0s
1O
0n
0f
0]
0;
1:
1E
0D
0@
1+
0,
00
1~
1w
1t
0o
0^
1)!
0~
1p
1*!
0`
0q
1+!
#160000
0"
0J
0K
13
#165000
1"
1J
1K
03
1,!
0*!
1f
1e
1]
1W
1>
12
0+!
1g
1^
1_
#170000
0"
0J
0K
13
#175000
1"
1J
1K
03
0,!
1Y
1*!
0_
0>
1?
02
11
1+!
#180000
0"
0J
0K
13
#185000
1"
1J
1K
03
1,!
0*!
0e
1_
0W
1;
1>
12
0+!
0g
1Z
0_
1[
#190000
0"
0J
0K
13
#195000
1"
1J
1K
03
0,!
1\
0Y
1*!
1n
0:
0>
1@
0?
02
10
01
1+!
1o
0)!
0p
0*!
1`
0Z
1q
0+!
0[
#200000
0"
0J
0K
13
#205000
1"
1J
1K
03
1r
0\
1s
0O
0n
0f
0]
0;
1:
1D
0@
1,
00
0w
0t
0o
0^
1)!
1~
1p
1*!
0`
0q
1+!
#210000
0"
0J
0K
13
#215000
1"
1J
1K
03
1,!
0*!
1f
1e
1]
1W
1>
12
0+!
1g
1^
1_
#220000
0"
0J
0K
13
#225000
1"
1J
1K
03
0,!
1Y
1*!
0_
0>
1?
02
11
1+!
#230000
0"
0J
0K
13
#235000
1"
1J
1K
03
1,!
0*!
0e
1_
0W
1;
1>
12
0+!
0g
1Z
0_
1[
#240000
0"
0J
0K
13
#245000
1"
1J
1K
03
0,!
1\
0Y
1*!
1n
0:
0>
1@
0?
02
10
01
1+!
1o
0)!
0p
0*!
1`
0Z
1q
0+!
0[
#250000
0"
0J
0K
13
#255000
1"
1J
1K
03
1"!
0v
0r
0\
0%!
1x
0~
1w
1t
0s
1O
0n
0f
0]
0;
1:
1F
0E
0D
0@
1*
0+
0,
00
1&!
1S
0x
1~
0t
0o
0^
1)!
0'!
0S
1p
1*!
0`
0(!
0q
1+!
#260000
0"
0J
0K
13
#265000
1"
1J
1K
03
1,!
0*!
1f
1e
1]
1W
1>
12
0+!
1g
1^
1_
#270000
0"
0J
0K
13
#275000
1"
1J
1K
03
0,!
1Y
1*!
0_
0>
1?
02
11
1+!
#280000
0"
0J
0K
13
#285000
1"
1J
1K
03
1,!
0*!
0e
1_
0W
1;
1>
12
0+!
0g
1Z
0_
1[
#290000
0"
0J
0K
13
#295000
1"
1J
1K
03
0,!
1\
0Y
1*!
1n
0:
0>
1@
0?
02
10
01
1+!
#300000
0"
0J
0K
13
#305000
1"
1J
1K
03
1,!
0*!
1e
0]
1W
1>
12
0+!
1g
0^
0h
#310000
0"
0J
0K
13
#315000
1"
1J
1K
03
0,!
1Y
1*!
1h
0n
1:
0>
1?
02
11
1+!
#320000
0"
0J
0K
13
#325000
1"
1J
1K
03
1,!
0*!
1i
0h
0e
0W
1<
0;
1>
12
0+!
0g
1c
0Z
1h
0[
#330000
0"
0J
0K
13
#335000
1"
1J
1K
03
0,!
1d
0\
0Y
1*!
0i
0<
0c
1=
0>
1A
0@
0?
02
1/
00
01
1+!
0=
1c
1a
0a
#340000
0"
0J
0K
13
#345000
1"
1J
1K
03
1,!
0*!
1]
1W
1>
12
0+!
1^
#350000
0"
0J
0K
13
#355000
1"
1J
1K
03
0,!
1Y
1*!
0>
1?
02
11
1+!
#360000
0"
0J
0K
13
#365000
1"
1J
1K
03
1,!
0*!
0W
1;
1>
12
0+!
1Z
1[
#370000
0"
0J
0K
13
#375000
1"
1J
1K
03
0,!
1\
0Y
1*!
1n
0:
0>
1@
0?
02
10
01
1+!
#380000
0"
0J
0K
13
#385000
1"
1J
1K
03
1,!
0*!
0]
1W
1>
12
0+!
0^
#390000
0"
0J
0K
13
#395000
1"
1J
1K
03
0,!
1Y
1*!
0n
1:
0>
1?
02
11
1+!
#400000
0"
0J
0K
13
#405000
1"
1J
1K
03
1,!
0*!
1i
0W
1<
0;
1>
12
0+!
1=
0c
0Z
1a
0[
#410000
0"
0J
0K
13
#415000
1"
1J
1K
03
0,!
0d
1b
0\
0Y
1*!
0i
0f
0<
1c
0=
0a
0>
0A
1B
0@
0?
02
0/
1.
00
01
1+!
0c
1a
#420000
0"
0J
0K
13
#425000
1"
1J
1K
03
1,!
0*!
1f
1e
1]
1W
1>
12
0+!
1^
#430000
0"
0J
0K
13
#435000
1"
1J
1K
03
0,!
1Y
1*!
0>
1?
02
11
1+!
#440000
0"
0J
0K
13
#445000
1"
1J
1K
03
1,!
0*!
0e
0W
1;
1>
12
0+!
1Z
1[
#450000
1#
1&
0"
1L
1M
0J
0K
13
1*!
1{
1-!
1x
0~
1t
0p
1`
1W
1S
1+!
0y
0S
1q
0a
0W
1z
0-!
0{
#455000
1"
1J
1K
03
0b
1\
0Y
0:
0]
1e
0B
1@
0?
0.
10
01
0^
1g
0h
#460000
0"
0J
0K
13
#465000
1"
1J
1K
03
#470000
0"
0J
0K
13
#475000
1"
1J
1K
03
#480000
0"
0J
0K
13
#485000
1"
1J
1K
03
#490000
0"
0J
0K
13
#495000
1"
1J
1K
03
#500000
0&
0"
0M
0J
0K
13
0*!
1n
0`
0Z
0+!
#505000
1"
1J
1K
03
0,!
0"!
1v
1r
1+!
1h
0e
1]
1W
1%!
0x
1~
0w
0t
1s
0O
0>
0F
1E
1D
02
0*
1+
1,
0q
0g
1^
0[
0&!
1y
1S
1x
0~
1t
1'!
0z
1-!
0y
0S
1(!
1{
1z
0-!
0)!
1o
0{
#510000
0"
0J
0K
13
#515000
1"
1J
1K
03
1,!
0\
1Y
0+!
1)!
0o
0n
1:
1>
0@
1?
12
00
11
#520000
0"
0J
0K
13
#525000
1"
1J
1K
03
0,!
1+!
1e
0W
0;
0>
02
1g
#530000
0"
0J
0K
13
#535000
1"
1J
1K
03
1,!
0Y
0+!
1_
1>
0?
12
01
1+!
1`
1[
#540000
0"
0J
0K
13
#545000
1"
1J
1K
03
1\
1n
0h
0]
1;
0:
1@
10
1q
0^
0[
0_
0+!
0`
1[
#550000
0"
0J
0K
13
#555000
1"
1J
1K
03
0,!
0r
1+!
0)!
1o
1h
0e
1]
1W
0s
1O
0>
0D
02
0,
0q
0g
1^
0[
0t
#560000
0"
0J
0K
13
#565000
1"
1J
1K
03
1,!
0\
1Y
0+!
1)!
0o
0n
1:
1>
0@
1?
12
00
11
#570000
0"
0J
0K
13
#575000
1"
1J
1K
03
0,!
1+!
1e
0W
0;
0>
02
1g
#580000
0"
0J
0K
13
#585000
1"
1J
1K
03
1,!
0Y
0+!
1_
1>
0?
12
01
1+!
1`
1[
#590000
0"
0J
0K
13
#595000
1"
1J
1K
03
1\
1n
0h
0]
1;
0:
1@
10
1q
0^
0[
0_
0+!
0`
1[
#600000
0"
0J
0K
13
#605000
1"
1J
1K
03
0,!
0v
1r
1+!
0)!
1o
1h
0e
1]
1W
1w
1t
1s
0O
0>
0E
1D
02
0+
1,
0q
0g
1^
0[
0x
1~
0w
0t
1y
1S
1x
0~
0z
1-!
0y
0S
1{
1z
0-!
0{
#610000
0"
0J
0K
13
#615000
1"
1J
1K
03
1,!
0\
1Y
0+!
1)!
0o
0n
1:
1>
0@
1?
12
00
11
#620000
0"
0J
0K
13
#625000
1"
1J
1K
03
0,!
1+!
1e
0W
0;
0>
02
1g
#630000
0"
0J
0K
13
#635000
1"
1J
1K
03
1,!
0Y
0+!
1_
1>
0?
12
01
1+!
1`
1[
#640000
0"
0J
0K
13
#645000
1"
1J
1K
03
1\
1n
0h
0]
1;
0:
1@
10
1q
0^
0[
0_
0+!
0`
1[
#650000
0"
0J
0K
13
#655000
1"
1J
1K
03
0,!
0r
1+!
0)!
1o
1h
0e
1]
1W
0V
0s
1O
0>
0D
02
0,
0q
0g
0[
1w
1t
0x
1~
1y
1S
0z
1-!
1{
#660000
0"
0J
0K
13
#665000
1"
1J
1K
03
1,!
0\
1Y
0+!
1)!
0o
0n
1:
1>
0@
1?
12
00
11
#670000
0"
0J
0K
13
#675000
1"
1J
1K
03
0,!
1+!
1e
0W
0;
0>
02
1g
#680000
0"
0J
0K
13
#685000
1"
1J
1K
03
1,!
0Y
0+!
1>
0?
12
01
#690000
0"
0J
0K
13
#695000
1"
1J
1K
03
0,!
1+!
0f
0e
0]
1W
1<
0>
02
1j
0g
1=
1[
1c
1k
1a
1l
#700000
0"
0J
0K
13
#705000
1"
1J
1K
03
1,!
1m
1d
1b
1\
1Y
0+!
1f
0<
0l
0c
0j
0a
1>
1C
1A
1B
1@
1?
12
1-
1/
1.
10
11
0=
1c
0k
1a
1l
#710000
0"
0J
0K
13
#715000
1"
1J
1K
03
0,!
1+!
0W
1;
0>
02
#720000
0"
0J
0K
13
#725000
1"
1J
1K
03
1,!
0Y
0+!
1>
0?
12
01
#730000
0"
0J
0K
13
#735000
1"
1J
1K
03
0,!
1+!
1]
1W
0>
02
0[
#740000
0"
0J
0K
13
#745000
1"
1J
1K
03
1,!
0\
1Y
0+!
1>
0@
1?
12
00
11
#750000
0"
0J
0K
13
#755000
1"
1J
1K
03
0,!
1+!
0W
0;
0>
02
#760000
0#
0"
0L
0J
0K
13
0+!
1*!
0{
0-!
0~
0t
1q
1p
1W
0S
1+!
0q
#765000
1"
1J
1K
03
1,!
0*!
0W
1;
1>
12
0+!
1Z
1[
#770000
1&
0"
1M
0J
0K
13
1`
0Z
0l
0c
0a
0[
#775000
1"
1J
1K
03
0,!
0m
0d
0b
0Y
0f
0]
0;
0>
0C
0A
0B
0?
02
0-
0/
0.
01
#780000
0"
0J
0K
13
#785000
1"
1J
1K
03
#790000
0"
0J
0K
13
#795000
1"
1J
1K
03
#800000
0"
0J
0K
13
#805000
1"
1J
1K
03
#810000
0"
0J
0K
13
#815000
1"
1J
1K
03
#820000
0"
0J
0K
13
#825000
1"
1J
1K
03
#830000
0&
0"
0M
0J
0K
13
1*!
0`
1+!
#835000
1"
1J
1K
03
1,!
0*!
1f
1e
1]
1W
1>
12
0+!
1g
#840000
0"
0J
0K
13
#845000
1"
1J
1K
03
0,!
1Y
1*!
0>
1?
02
11
1+!
#850000
0"
0J
0K
13
#855000
1"
1J
1K
03
1,!
0*!
0e
0W
1;
1>
12
0+!
0g
1Z
1[
#860000
0"
0J
0K
13
#865000
1"
1J
1K
03
0,!
1\
0Y
1*!
1n
0:
0>
1@
0?
02
10
01
1+!
1o
0)!
0p
0*!
1`
0Z
1q
0+!
0[
#870000
0"
0J
0K
13
#875000
1"
1J
1K
03
1r
0\
1V
1s
0O
0n
0f
0]
0;
1:
1D
0@
1,
00
1t
0o
1)!
1p
1*!
0`
0q
1+!
#880000
0"
0J
0K
13
#885000
1"
1J
1K
03
1,!
0*!
1f
1e
1]
1W
1>
12
0+!
1g
1^
1_
#890000
0"
0J
0K
13
#895000
1"
1J
1K
03
0,!
1Y
1*!
0_
0>
1?
02
11
1+!
#900000
0"
0J
0K
13
#905000
1"
1J
1K
03
1,!
0*!
0e
1_
0W
1;
1>
12
0+!
0g
1Z
0_
1[
#910000
0"
0J
0K
13
#915000
1"
1J
1K
03
0,!
1\
0Y
1*!
1n
0:
0>
1@
0?
02
10
01
1+!
1o
0)!
0p
0*!
1`
0Z
1q
0+!
0[
#920000
0"
0J
0K
13
#925000
1"
1J
1K
03
1v
0r
0\
0w
0t
0s
1O
0n
0f
0]
0;
1:
1E
0D
0@
1+
0,
00
1~
1w
1t
0o
0^
1)!
0~
1p
1*!
0`
0q
1+!
#930000
0"
0J
0K
13
#935000
1"
1J
1K
03
1,!
0*!
1f
1e
1]
1W
1>
12
0+!
1g
1^
1_
#940000
0"
0J
0K
13
#945000
1"
1J
1K
03
0,!
1Y
1*!
0_
0>
1?
02
11
1+!
#950000
0"
0J
0K
13
#955000
1"
1J
1K
03
1,!
0*!
0e
1_
0W
1;
1>
12
0+!
0g
1Z
0_
1[
#960000
0"
0J
0K
13
#965000
1"
1J
1K
03
0,!
1\
0Y
1*!
1n
0:
0>
1@
0?
02
10
01
1+!
1o
0)!
0p
0*!
1`
0Z
1q
0+!
0[
#970000
0"
0J
0K
13
#975000
1"
1J
1K
03
1r
0\
1s
0O
0n
0f
0]
0;
1:
1D
0@
1,
00
0w
0t
0o
0^
1)!
1~
1p
1*!
0`
0q
1+!
#980000
0"
0J
0K
13
#985000
1"
1J
1K
03
1,!
0*!
1f
1e
1]
1W
1>
12
0+!
1g
1^
1_
#990000
0"
0J
0K
13
#995000
1"
1J
1K
03
0,!
1Y
1*!
0_
0>
1?
02
11
1+!
